{"index": {"_id": "632844209"}}
{"codigo": "632844209", "competencias": [], "contenidos": [], "coordinadores": [], "creditos": 6.0, "cuatrimestre": "2\u00ba cuadrimestre", "curso": "Primeiro", "departamento": "", "descripcion": "", "nombre_asignatura": "Sig e hidrolox\u00eda", "nombre_centro": "Escola T\u00e9cnica Superior de Enxe\u00f1eiros de Cami\u00f1os, Canais e Portos", "nombre_titulacion": "Mestrado Universitario en Enxe\u00f1ar\u00eda da Auga (plan 2012)", "profesores": [], "tipo": "Obrigatoria", "url": "https://guiadocente.udc.es/guia_docent/index.php?centre=632&ensenyament=632844&assignatura=632844209&any_academic=2018_19"}
{"index": {"_id": "632844208"}}
{"codigo": "632844208", "competencias": [], "contenidos": [], "coordinadores": [], "creditos": 6.0, "cuatrimestre": "2\u00ba cuadrimestre", "curso": "Primeiro", "departamento": "", "descripcion": "", "nombre_asignatura": "Planificaci\u00f3n hidr\u00e1ulica e proxectos", "nombre_centro": "Escola T\u00e9cnica Superior de Enxe\u00f1eiros de Cami\u00f1os, Canais e Portos", "nombre_titulacion": "Mestrado Universitario en Enxe\u00f1ar\u00eda da Auga (plan 2012)", "profesores": [], "tipo": "Obrigatoria", "url": "https://guiadocente.udc.es/guia_docent/index.php?centre=632&ensenyament=632844&assignatura=632844208&any_academic=2018_19"}
{"index": {"_id": "632844213"}}
{"codigo": "632844213", "competencias": [], "contenidos": [], "coordinadores": [], "creditos": 6.0, "cuatrimestre": "2\u00ba cuadrimestre", "curso": "Primeiro", "departamento": "", "descripcion": "", "nombre_asignatura": "Morfolox\u00eda fluvial", "nombre_centro": "Escola T\u00e9cnica Superior de Enxe\u00f1eiros de Cami\u00f1os, Canais e Portos", "nombre_titulacion": "Mestrado Universitario en Enxe\u00f1ar\u00eda da Auga (plan 2012)", "profesores": [], "tipo": "Optativa", "url": "https://guiadocente.udc.es/guia_docent/index.php?centre=632&ensenyament=632844&assignatura=632844213&any_academic=2018_19"}
{"index": {"_id": "632844210"}}
{"codigo": "632844210", "competencias": [], "contenidos": [], "coordinadores": [], "creditos": 6.0, "cuatrimestre": "2\u00ba cuadrimestre", "curso": "Primeiro", "departamento": "", "descripcion": "", "nombre_asignatura": "Ecolox\u00eda de restituci\u00f3n", "nombre_centro": "Escola T\u00e9cnica Superior de Enxe\u00f1eiros de Cami\u00f1os, Canais e Portos", "nombre_titulacion": "Mestrado Universitario en Enxe\u00f1ar\u00eda da Auga (plan 2012)", "profesores": [], "tipo": "Obrigatoria", "url": "https://guiadocente.udc.es/guia_docent/index.php?centre=632&ensenyament=632844&assignatura=632844210&any_academic=2018_19"}
{"index": {"_id": "632844212"}}
{"codigo": "632844212", "competencias": [], "contenidos": [], "coordinadores": [], "creditos": 6.0, "cuatrimestre": "2\u00ba cuadrimestre", "curso": "Primeiro", "departamento": "", "descripcion": "", "nombre_asignatura": "Hidr\u00e1ulica computacional II", "nombre_centro": "Escola T\u00e9cnica Superior de Enxe\u00f1eiros de Cami\u00f1os, Canais e Portos", "nombre_titulacion": "Mestrado Universitario en Enxe\u00f1ar\u00eda da Auga (plan 2012)", "profesores": [], "tipo": "Optativa", "url": "https://guiadocente.udc.es/guia_docent/index.php?centre=632&ensenyament=632844&assignatura=632844212&any_academic=2018_19"}
{"index": {"_id": "632844214"}}
{"codigo": "632844214", "competencias": [], "contenidos": [], "coordinadores": [], "creditos": 6.0, "cuatrimestre": "2\u00ba cuadrimestre", "curso": "Primeiro", "departamento": "", "descripcion": "", "nombre_asignatura": "Biotecnolox\u00eda auga", "nombre_centro": "Escola T\u00e9cnica Superior de Enxe\u00f1eiros de Cami\u00f1os, Canais e Portos", "nombre_titulacion": "Mestrado Universitario en Enxe\u00f1ar\u00eda da Auga (plan 2012)", "profesores": [], "tipo": "Optativa", "url": "https://guiadocente.udc.es/guia_docent/index.php?centre=632&ensenyament=632844&assignatura=632844214&any_academic=2018_19"}
{"index": {"_id": "632844211"}}
{"codigo": "632844211", "competencias": [], "contenidos": [], "coordinadores": [], "creditos": 6.0, "cuatrimestre": "2\u00ba cuadrimestre", "curso": "Primeiro", "departamento": "", "descripcion": "", "nombre_asignatura": "Hidr\u00e1ulica experimental II", "nombre_centro": "Escola T\u00e9cnica Superior de Enxe\u00f1eiros de Cami\u00f1os, Canais e Portos", "nombre_titulacion": "Mestrado Universitario en Enxe\u00f1ar\u00eda da Auga (plan 2012)", "profesores": [], "tipo": "Optativa", "url": "https://guiadocente.udc.es/guia_docent/index.php?centre=632&ensenyament=632844&assignatura=632844211&any_academic=2018_19"}
{"index": {"_id": "632844206"}}
{"codigo": "632844206", "competencias": [{"codigo": "A19", "competencia": "Co\u00f1ecemento de tratamentos avanzados da auga con diferentes fins: depuraci\u00f3n, reutilizaci\u00f3n, potabilizaci\u00f3n, eliminaci\u00f3n de nutrientes e tratamentos de rexeneraci\u00f3n"}, {"codigo": "A23", "competencia": "Co\u00f1ecementos fundamentais sobre o consumo de enerx\u00eda e das s\u00faas implicaci\u00f3ns ambientais dentro dun desenvolvemento sostible"}, {"codigo": "A25", "competencia": "Co\u00f1ecemento e comprensi\u00f3n do funcionamento dos ecosistemas e os factores ambientais co fin de inventariar o medio, aplicando metodolox\u00edas de valoraci\u00f3n de impactos para o seu emprego en estudos e avaliaci\u00f3ns de Impacto Ambiental."}, {"codigo": "B1", "competencia": "Resolver problemas de forma eficaz"}, {"codigo": "B2", "competencia": "Aplicar un pensamento cr\u00edtico, l\u00f3xico e creativo."}, {"codigo": "B3", "competencia": "Traballar de forma aut\u00f3noma con iniciativa"}, {"codigo": "B4", "competencia": "Comunicarse eficazmente nun ambiente de traballo"}, {"codigo": "B5", "competencia": "Reciclaxe continua de co\u00f1ecementos nunha perspectiva xeralista no \u00e1mbito global de actuaci\u00f3n da Enxe\u00f1ar\u00eda da Auga"}, {"codigo": "B6", "competencia": "Compresi\u00f3n da necesidade de analiza-la historia para entender o presente"}, {"codigo": "B7", "competencia": "Facilidade para a  integraci\u00f3n nos equipos multidisciplinares"}, {"codigo": "B8", "competencia": "Capacidade para organizar e planificar"}, {"codigo": "B9", "competencia": "Capacidade de an\u00e1lise, s\u00edntese e estruturaci\u00f3n da informaci\u00f3n e as ideas."}, {"codigo": "C1", "competencia": "Entender a importancia da cultura emprendedora e co\u00f1ecer os medios ao alcance das persoas emprendedoras"}, {"codigo": "C2", "competencia": "Valorar criticamente o co\u00f1ecemento, a tecnolox\u00eda e a informaci\u00f3n dispo\u00f1ible para resolver os problemas cos que deben enfrontarse."}, {"codigo": "C3", "competencia": "Asumir como profesional e cidad\u00e1n a importancia da aprendizaxe ao longo da vida."}, {"codigo": "C4", "competencia": "Valorar a importancia que ten a investigaci\u00f3n, a innovaci\u00f3n e o desenvolvemento tecnol\u00f3xico no avance socioecon\u00f3mico e cultural da sociedade."}, {"codigo": "C5", "competencia": "Posu\u00edr e comprender co\u00f1ecementos que acheguen unha base ou oportunidade de ser orixinais no desenvolvemento e/ou aplicaci\u00f3n de ideas, a mi\u00fado nun contexto de investigaci\u00f3n"}, {"codigo": "C6", "competencia": "Que os estudantes saiban aplicar os co\u00f1ecementos adquiridos e a s\u00faa capacidade de resoluci\u00f3n de problemas en \u00e1mbitos novos ou pouco co\u00f1ecidos dentro de contextos m\u00e1is amplos (ou multidisciplinares)relacionados coa s\u00faa \u00e1rea de estudo"}, {"codigo": "C7", "competencia": "Que os estudantes sexan capaces de integrar co\u00f1ecementos e enfrontarse \u00e1 complexidade de formular xu\u00edzos a partir dunha informaci\u00f3n que, sendo incompleta ou limitada, incl\u00faa reflexi\u00f3ns sobre as responsabilidades sociais e \u00e9ticas vinculadas \u00e1 aplicaci\u00f3n dos seus co\u00f1ecementos e xu\u00edzos"}, {"codigo": "C8", "competencia": "Que os estudantes saiban comunicar as s\u00faas conclusi\u00f3ns e os co\u00f1ecementos e raz\u00f3ns \u00faltimas que as sustentan a p\u00fablicos especializados e non especializados dun modo claro e sen ambig\u00fcidades"}, {"codigo": "C9", "competencia": "Que os estudantes pos\u00faan as habilidades de aprendizaxe que lles permitan continuar estudando dun modo que haber\u00e1 de ser en boa medida autodirixido ou aut\u00f3nomo"}], "contenidos": [{"subtemas": [{"subtema": "Introduci\u00f3n"}, {"subtema": "O uso de enerx\u00eda para obter auga"}, {"subtema": "Enerx\u00eda obtida da auga"}, {"subtema": "O uso de auga para obter enerx\u00eda"}], "temas": [{"tema": "Auga e enerx\u00eda: dous conceptos \u00edntimamente relacionados"}]}, {"subtemas": [{"subtema": "Demanda de auga"}, {"subtema": "Huella h\u00eddrica e huella de carbono"}, {"subtema": "Emisi\u00f3n de gases de efecto invernadoiro"}], "temas": [{"tema": "Auga, enerx\u00eda e desenvolvemento sostible. An\u00e1lise do ciclo de vida"}]}, {"subtemas": [{"subtema": "Opci\u00f3ns de reutilizaci\u00f3n de auga"}, {"subtema": "Opci\u00f3ns de tratamento e os seus equerimentos enerx\u00e9ticos"}, {"subtema": "An\u00e1lise do ciclo de vida da auga reutilizada"}], "temas": [{"tema": "A reutilizaci\u00f3n da auga como exemplo de iniciativa sostible"}]}, {"subtemas": [{"subtema": "O problema da auga e a enerx\u00eda"}, {"subtema": "Tecnolox\u00edas baseadas en enerx\u00edas renovables para a produci\u00f3n de auga doce"}], "temas": [{"tema": "Enerx\u00edas renovables para afrontar a escaseza de auga"}]}, {"subtemas": [{"subtema": "Sistemas l\u00e9nticos"}, {"subtema": "Sistemas l\u00f3ticos"}], "temas": [{"tema": "O funcionamento dos ecosistemas acu\u00e1ticos"}]}, {"subtemas": [{"subtema": "Microorganismos e plantas"}, {"subtema": "Animais"}], "temas": [{"tema": "A biodiversidade das augas doces. Grupos de organismos acu\u00e1ticos"}]}, {"subtemas": [{"subtema": "Efectos a nivel sub-organismo"}, {"subtema": "Efectos a nivel supra-organismo"}], "temas": [{"tema": "Efectos dos contaminantes nos ecosistemas acu\u00e1ticos"}]}, {"subtemas": [{"subtema": "Bioindicadores recomendados pola Directiva Marco da Auga"}], "temas": [{"tema": "O uso de bioindicadores na avaliaci\u00f3n da calidade da auga"}]}, {"subtemas": [{"subtema": "Tipos"}, {"subtema": "Est\u00e1ndares"}, {"subtema": "Problemas"}, {"subtema": "Efectos sobre a sa\u00fade e impacto no ambiente"}], "temas": [{"tema": "A contaminaci\u00f3n qu\u00edmica da auga"}]}, {"subtemas": [{"subtema": "Coagulaci\u00f3n-Precipitaci\u00f3n"}, {"subtema": "Oxidaci\u00f3n e reducci\u00f3n"}, {"subtema": "Intercambio i\u00f3nico"}, {"subtema": "Desinfecci\u00f3n"}, {"subtema": "Sistemas de bombeo"}, {"subtema": "Xesti\u00f3n de estaci\u00f3ns de depuraci\u00f3n de augas residuais"}], "temas": [{"tema": "Tratamentos qu\u00edmicos"}]}, {"subtemas": [{"subtema": "Contaminaci\u00f3n por residuos dom\u00e9sticos"}, {"subtema": "Contaminaci\u00f3n por residuos de gander\u00eda"}, {"subtema": "Contaminaci\u00f3n por residuos industriais"}, {"subtema": "Contaminaci\u00f3n por residuos municipais"}, {"subtema": "Contaminaci\u00f3n por res\u00edduos agr\u00edcolas"}, {"subtema": "A agua de escorrent\u00eda urbana"}], "temas": [{"tema": "Tipos de contaminaci\u00f3n da auga"}]}, {"subtemas": [{"subtema": "M\u00e9todos anal\u00edticos"}], "temas": [{"tema": "M\u00e9todos anal\u00edticos para a determinaci\u00f3n de par\u00e1metros f\u00edsico-qu\u00edmicos"}]}], "coordinadores": [{"email": "maria.servia@udc.es", "nombre": "Servia Garc\u00eda, Mar\u00eda Jos\u00e9"}], "creditos": 6.0, "cuatrimestre": "1\u00ba cuadrimestre", "curso": "Primeiro", "departamento": "Biolox\u00edaEnxe\u00f1ar\u00eda CivilEnxe\u00f1ar\u00eda Naval e Industrial", "descripcion": "O tratamento da auga tense convertido nunha ferramenta fundamental na xesti\u00f3n deste recurso. De feito, o obxectivo fundamental da Directiva Cadro da Auga (2000/60/EC) \u00e9 conseguir a eliminaci\u00f3n de sustancias perigosas e contribuir a acadar concentraci\u00f3ns cercanas aos valores de referencia de aquelas sustancias presentes de forma natural tanto nos medios de auga doce como mari\u00f1os. As\u00ed, o obxectivo principal desta materia \u00e9 axudar aos estudantes a identificar e avaliar factores e risco e procesos relacionados coa contaminaci\u00f3n e o tratamento da agua.", "nombre_asignatura": "Tratamento da auga e eficiencia enerx\u00e9tica", "nombre_centro": "Escola T\u00e9cnica Superior de Enxe\u00f1eiros de Cami\u00f1os, Canais e Portos", "nombre_titulacion": "Mestrado Universitario en Enxe\u00f1ar\u00eda da Auga (plan 2012)", "profesores": [{"email": "margarita.martinez@udc.es", "nombre": "Mart\u00ednez D\u00edaz, Margarita"}, {"email": "maria.servia@udc.es", "nombre": "Servia Garc\u00eda, Mar\u00eda Jos\u00e9"}, {"email": "ana.maria.vazquez@udc.es", "nombre": "V\u00e1zquez Gonz\u00e1lez, Ana Mar\u00eda"}], "tipo": "Optativa", "url": "https://guiadocente.udc.es/guia_docent/index.php?centre=632&ensenyament=632844&assignatura=632844206&any_academic=2018_19"}
{"index": {"_id": "632844202"}}
{"codigo": "632844202", "competencias": [{"codigo": "A17", "competencia": "Visi\u00f3n global do que \u00e9 un sistema de abastecemento a trav\u00e9s dos distintos elementos que o compo\u00f1en, \u00e1 vez que os co\u00f1ecementos necesarios para o seu dimensionamento b\u00e1sico e dos aspectos tecnol\u00f3xicos relacionados coa s\u00faa xesti\u00f3n e implantaci\u00f3n construtiva"}, {"codigo": "A24", "competencia": "Capacidade para dese\u00f1ar e xestionar o abastecemento e saneamento dunha poboaci\u00f3n, inclu\u00edndo dese\u00f1o e proxecto de soluci\u00f3ns de saneamento, drenaxe e xesti\u00f3n avanzada de augas residuais na cidade. Co\u00f1ecemento sobre procesos avanzados de depuraci\u00f3n para a eliminaci\u00f3n de nutrientes e de estratexias de xesti\u00f3n de augas tempo de chuvia."}, {"codigo": "B1", "competencia": "Resolver problemas de forma eficaz"}, {"codigo": "B2", "competencia": "Aplicar un pensamento cr\u00edtico, l\u00f3xico e creativo."}, {"codigo": "B3", "competencia": "Traballar de forma aut\u00f3noma con iniciativa"}, {"codigo": "B4", "competencia": "Comunicarse eficazmente nun ambiente de traballo"}, {"codigo": "B5", "competencia": "Reciclaxe continua de co\u00f1ecementos nunha perspectiva xeralista no \u00e1mbito global de actuaci\u00f3n da Enxe\u00f1ar\u00eda da Auga"}, {"codigo": "B6", "competencia": "Compresi\u00f3n da necesidade de analiza-la historia para entender o presente"}, {"codigo": "B7", "competencia": "Facilidade para a  integraci\u00f3n nos equipos multidisciplinares"}, {"codigo": "B8", "competencia": "Capacidade para organizar e planificar"}, {"codigo": "B9", "competencia": "Capacidade de an\u00e1lise, s\u00edntese e estruturaci\u00f3n da informaci\u00f3n e as ideas."}, {"codigo": "C1", "competencia": "Entender a importancia da cultura emprendedora e co\u00f1ecer os medios ao alcance das persoas emprendedoras"}, {"codigo": "C2", "competencia": "Valorar criticamente o co\u00f1ecemento, a tecnolox\u00eda e a informaci\u00f3n dispo\u00f1ible para resolver os problemas cos que deben enfrontarse."}, {"codigo": "C3", "competencia": "Asumir como profesional e cidad\u00e1n a importancia da aprendizaxe ao longo da vida."}, {"codigo": "C4", "competencia": "Valorar a importancia que ten a investigaci\u00f3n, a innovaci\u00f3n e o desenvolvemento tecnol\u00f3xico no avance socioecon\u00f3mico e cultural da sociedade."}, {"codigo": "C5", "competencia": "Posu\u00edr e comprender co\u00f1ecementos que acheguen unha base ou oportunidade de ser orixinais no desenvolvemento e/ou aplicaci\u00f3n de ideas, a mi\u00fado nun contexto de investigaci\u00f3n"}, {"codigo": "C6", "competencia": "Que os estudantes saiban aplicar os co\u00f1ecementos adquiridos e a s\u00faa capacidade de resoluci\u00f3n de problemas en \u00e1mbitos novos ou pouco co\u00f1ecidos dentro de contextos m\u00e1is amplos (ou multidisciplinares)relacionados coa s\u00faa \u00e1rea de estudo"}, {"codigo": "C7", "competencia": "Que os estudantes sexan capaces de integrar co\u00f1ecementos e enfrontarse \u00e1 complexidade de formular xu\u00edzos a partir dunha informaci\u00f3n que, sendo incompleta ou limitada, incl\u00faa reflexi\u00f3ns sobre as responsabilidades sociais e \u00e9ticas vinculadas \u00e1 aplicaci\u00f3n dos seus co\u00f1ecementos e xu\u00edzos"}, {"codigo": "C8", "competencia": "Que os estudantes saiban comunicar as s\u00faas conclusi\u00f3ns e os co\u00f1ecementos e raz\u00f3ns \u00faltimas que as sustentan a p\u00fablicos especializados e non especializados dun modo claro e sen ambig\u00fcidades"}, {"codigo": "C9", "competencia": "Que os estudantes pos\u00faan as habilidades de aprendizaxe que lles permitan continuar estudando dun modo que haber\u00e1 de ser en boa medida autodirixido ou aut\u00f3nomo"}], "contenidos": [{"subtemas": [{"subtema": "1.1. Introduci\u00f3n hist\u00f3rica aos sistemas de abastecemento e saneamento"}, {"subtema": "1.2. Visi\u00f3n xeral dos sistemas de captaci\u00f3n e abastecemento de auga 1.3. Visi\u00f3n xeral dos sistemas de xesti\u00f3n da auga residual"}, {"subtema": "1.4. Visi\u00f3n xeral dos sistemas de xesti\u00f3n da escorrent\u00eda urbana"}], "temas": [{"tema": "1. Introduci\u00f3n aos sistemas de abastecemento e saneamento"}, {"tema": ""}]}, {"subtemas": [{"subtema": "2.1. Captaci\u00f3n de auga superficial: r\u00edos, lagos, encoros..."}, {"subtema": "2.2. Captaci\u00f3n de mananciais"}, {"subtema": "2.3. Captaci\u00f3n de auga subterr\u00e1nea"}, {"subtema": "2.4. Tratamentos de potabilizaci\u00f3n de auga"}, {"subtema": "2.5. Estaci\u00f3ns de potabilizaci\u00f3n de auga"}], "temas": [{"tema": "2. Sistemas de captaci\u00f3n e tratamentos de potabilizaci\u00f3n"}]}, {"subtemas": [{"subtema": "3.1. Conceptos xerais"}, {"subtema": "3.2. Descrici\u00f3n"}, {"subtema": "3.3. Dese\u00f1o"}], "temas": [{"tema": "3. Redes de distribuci\u00f3n"}]}, {"subtemas": [{"subtema": "4.1. Conceptos xerais"}, {"subtema": "4.2. Descrici\u00f3n"}, {"subtema": "4.3. Dese\u00f1o"}], "temas": [{"tema": "4. Redes de saneamento"}]}, {"subtemas": [{"subtema": "5.1. Sistemas non convencionais de xesti\u00f3n da escorrent\u00eda"}, {"subtema": "5.2. Estruturas de detenci\u00f3n e tratamento"}], "temas": [{"tema": "5. Sistemas non convencionais de drenaxe sostible"}]}, {"subtemas": [{"subtema": "6.1. Marco legal europeo"}], "temas": [{"tema": "6. Marco legal"}]}], "coordinadores": [{"email": "anaves@udc.es", "nombre": "Naves Garc\u00eda-Rendueles, Acacia"}], "creditos": 6.0, "cuatrimestre": "1\u00ba cuadrimestre", "curso": "Primeiro", "departamento": "Dereito P\u00fablicoEconom\u00edaEnxe\u00f1ar\u00eda CivilMatem\u00e1ticas", "descripcion": "Introduci\u00f3n hist\u00f3rica aos sistemas de abastecemento e saneamento. Sistemas de captaci\u00f3n e tratamentos de potabilizaci\u00f3n. Redes de distribuci\u00f3n: conceptos xerais, descrici\u00f3n e dese\u00f1o. Redes de saneamento: conceptos xerais, descrici\u00f3n e dese\u00f1o. Sistemas de drenaxe sostible. Tratamentos de auga residual previos \u00e1 vertedura ao medio receptor. Marco legal.", "nombre_asignatura": "Sistemas de abastecemento e saneamento", "nombre_centro": "Escola T\u00e9cnica Superior de Enxe\u00f1eiros de Cami\u00f1os, Canais e Portos", "nombre_titulacion": "Mestrado Universitario en Enxe\u00f1ar\u00eda da Auga (plan 2012)", "profesores": [{"email": "alberte.martinez@udc.es", "nombre": "Martinez Lopez, Alberto"}, {"email": "acacia.naves@udc.es", "nombre": "Naves Garc\u00eda-Rendueles, Acacia"}, {"email": "pablo.rodriguez-vellando@udc.es", "nombre": "Rodr\u00edguez-Vellando Fern\u00e1ndez-Carvajal, Pablo"}, {"email": "javier.sanz.larruga@udc.es", "nombre": "Sanz Larruga, Francisco Javier"}], "tipo": "Obrigatoria", "url": "https://guiadocente.udc.es/guia_docent/index.php?centre=632&ensenyament=632844&assignatura=632844202&any_academic=2018_19"}
{"index": {"_id": "632844201"}}
{"codigo": "632844201", "competencias": [{"codigo": "A1", "competencia": "Co\u00f1ecemento, comprensi\u00f3n e capacidade de aplicar a lexislaci\u00f3n relacionada coa Enxe\u00f1ar\u00eda de auga para o desenvolvemento da profesi\u00f3n. Capacidade de analizar os mecanismos de funcionamento da econom\u00eda e xesti\u00f3n p\u00fablica e privada de auga"}, {"codigo": "A6", "competencia": "Capacidade de analizar os mecanismos de funcionamento da econom\u00eda e xesti\u00f3n p\u00fablica e privada de auga"}, {"codigo": "A7", "competencia": "Co\u00f1ecemento dos fundamentos sobre a avaliaci\u00f3n dos recursos hidr\u00e1ulicos e as principais ferramentas para a planificaci\u00f3n hidrol\u00f3xica, a partir das xustificaci\u00f3ns te\u00f3ricas e as aplicaci\u00f3ns pr\u00e1cticas que conducen \u00e1 resoluci\u00f3n de problemas espec\u00edficos e a utilizaci\u00f3n de metodolox\u00edas actualizadas (programas e modelos) para a avaliaci\u00f3n da explotaci\u00f3n, os usos, a defensa, a xesti\u00f3n e a planificaci\u00f3n conxunta das augas subterr\u00e1neas e superficiais. Co\u00f1ecemento dos plans hidrol\u00f3xicos nacionais"}, {"codigo": "A9", "competencia": "Co\u00f1ecementos de sistemas de informaci\u00f3n xeogr\u00e1fica (SIG) aplicados \u00e1 xesti\u00f3n de recursos h\u00eddricos. Co\u00f1ecemento das funcionalidades b\u00e1sicas de sistemas para a an\u00e1lise dos datos xeogr\u00e1ficos, mediante a utilizaci\u00f3n de ferramentas SIG de apoio na xesti\u00f3n e a an\u00e1lise de datos sobre recursos h\u00eddricos. Co\u00f1ecemento das caracter\u00edsticas dos datos geoespaciales e nos procesos para a s\u00faa adquisici\u00f3n, almacenamento, tratamento, an\u00e1lise, modelado e presentaci\u00f3n"}, {"codigo": "A18", "competencia": "Capacidade de realizar un aproveitamento integral e eficiente do recurso h\u00eddrico. Co\u00f1ecemento do funcionamento dos organismos de conca e an\u00e1lise xeral dos proxectos de enxe\u00f1ar\u00eda da auga no \u00e1mbito da cooperaci\u00f3n ao desenvolvemento e a axuda humanitaria"}, {"codigo": "B1", "competencia": "Resolver problemas de forma eficaz"}, {"codigo": "B2", "competencia": "Aplicar un pensamento cr\u00edtico, l\u00f3xico e creativo."}, {"codigo": "B3", "competencia": "Traballar de forma aut\u00f3noma con iniciativa"}, {"codigo": "B4", "competencia": "Comunicarse eficazmente nun ambiente de traballo"}, {"codigo": "B5", "competencia": "Reciclaxe continua de co\u00f1ecementos nunha perspectiva xeralista no \u00e1mbito global de actuaci\u00f3n da Enxe\u00f1ar\u00eda da Auga"}, {"codigo": "B6", "competencia": "Compresi\u00f3n da necesidade de analiza-la historia para entender o presente"}, {"codigo": "B7", "competencia": "Facilidade para a  integraci\u00f3n nos equipos multidisciplinares"}, {"codigo": "B8", "competencia": "Capacidade para organizar e planificar"}, {"codigo": "B9", "competencia": "Capacidade de an\u00e1lise, s\u00edntese e estruturaci\u00f3n da informaci\u00f3n e as ideas."}, {"codigo": "C1", "competencia": "Entender a importancia da cultura emprendedora e co\u00f1ecer os medios ao alcance das persoas emprendedoras"}, {"codigo": "C2", "competencia": "Valorar criticamente o co\u00f1ecemento, a tecnolox\u00eda e a informaci\u00f3n dispo\u00f1ible para resolver os problemas cos que deben enfrontarse."}, {"codigo": "C3", "competencia": "Asumir como profesional e cidad\u00e1n a importancia da aprendizaxe ao longo da vida."}, {"codigo": "C4", "competencia": "Valorar a importancia que ten a investigaci\u00f3n, a innovaci\u00f3n e o desenvolvemento tecnol\u00f3xico no avance socioecon\u00f3mico e cultural da sociedade."}, {"codigo": "C5", "competencia": "Posu\u00edr e comprender co\u00f1ecementos que acheguen unha base ou oportunidade de ser orixinais no desenvolvemento e/ou aplicaci\u00f3n de ideas, a mi\u00fado nun contexto de investigaci\u00f3n"}, {"codigo": "C6", "competencia": "Que os estudantes saiban aplicar os co\u00f1ecementos adquiridos e a s\u00faa capacidade de resoluci\u00f3n de problemas en \u00e1mbitos novos ou pouco co\u00f1ecidos dentro de contextos m\u00e1is amplos (ou multidisciplinares)relacionados coa s\u00faa \u00e1rea de estudo"}, {"codigo": "C7", "competencia": "Que os estudantes sexan capaces de integrar co\u00f1ecementos e enfrontarse \u00e1 complexidade de formular xu\u00edzos a partir dunha informaci\u00f3n que, sendo incompleta ou limitada, incl\u00faa reflexi\u00f3ns sobre as responsabilidades sociais e \u00e9ticas vinculadas \u00e1 aplicaci\u00f3n dos seus co\u00f1ecementos e xu\u00edzos"}, {"codigo": "C8", "competencia": "Que os estudantes saiban comunicar as s\u00faas conclusi\u00f3ns e os co\u00f1ecementos e raz\u00f3ns \u00faltimas que as sustentan a p\u00fablicos especializados e non especializados dun modo claro e sen ambig\u00fcidades"}, {"codigo": "C9", "competencia": "Que os estudantes pos\u00faan as habilidades de aprendizaxe que lles permitan continuar estudando dun modo que haber\u00e1 de ser en boa medida autodirixido ou aut\u00f3nomo"}], "contenidos": [{"subtemas": [{"subtema": "Recursos hidrol\u00f3xicos. Fins da planificaci\u00f3n dos recursos h\u00eddricos. A conca hidrol\u00f3xica. As augas subterr\u00e1neas e a planificaci\u00f3n integrada das augas superficiais. As extracci\u00f3ns de auga, abastecementos e usos. Xesti\u00f3n de datos e avaliaci\u00f3n. Balances h\u00eddricos. A xesti\u00f3n do fluxo da auga e a restituci\u00f3n hist\u00f3rica."}], "temas": [{"tema": "1. Avaliaci\u00f3n e an\u00e1lise de sistemas de recurso de auga."}]}, {"subtemas": [{"subtema": "Os recursos de augas subterr\u00e1neas e o seu almacenamento. Recargas e descargas. Balances das augas subterr\u00e1neas. Recargas subterr\u00e1neas naturais e artificiais. Simulaci\u00f3n das augas subterr\u00e1neas en relaci\u00f3n cos sistemas de auga de superficie. Calibraci\u00f3n e validaci\u00f3n de sistemas de augas subterr\u00e1neas."}], "temas": [{"tema": "2. Xesti\u00f3n de augas subterr\u00e1neas"}]}, {"subtemas": [{"subtema": "A xesti\u00f3n do fluxo de datos e a s\u00faa an\u00e1lise. Modelizaci\u00f3n determinista de concas hidrogr\u00e1ficas. Xeraci\u00f3n sint\u00e9tica do fluxo fluvial. Modelos de planificaci\u00f3n das concas hidrogr\u00e1ficas estoc\u00e1sticos. A auga para a xeraci\u00f3n hidroel\u00e9ctrica. Calibraci\u00f3n e validaci\u00f3n de sistemas de augas subterr\u00e1neas."}], "temas": [{"tema": "3. Xesti\u00f3n de augas superficiais"}]}, {"subtemas": [{"subtema": "Identificaci\u00f3n e avaliaci\u00f3n dos plans de xesti\u00f3n da auga. Control e eficiencia dos plans de xesti\u00f3n da auga. A planificaci\u00f3n dos recursos h\u00eddricos e a s\u00faa incerteza. Dese\u00f1o dun encoro e o seu funcionamento. Os obxectivos da planificaci\u00f3n e optimizaci\u00f3n dos recursos h\u00eddricos."}], "temas": [{"tema": "4. M\u00e9todos de an\u00e1lise"}]}, {"subtemas": [{"subtema": "Dese\u00f1o de sistemas de recursos h\u00eddricos integrados e a s\u00faa planificaci\u00f3n. Modelos matem\u00e1ticos para o desenvolvemento de alternativas de planificaci\u00f3n. Sistemas de xesti\u00f3n de datos de SIG. Econom\u00eda da auga e lexislaci\u00f3n. A administraci\u00f3n dos programas de planificaci\u00f3n hidrol\u00f3xica."}], "temas": [{"tema": "5. Planificaci\u00f3n hidrol\u00f3xica"}]}], "coordinadores": [{"email": "francisco.padilla@udc.es", "nombre": "Padilla Benitez, Francisco"}], "creditos": 6.0, "cuatrimestre": "1\u00ba cuadrimestre", "curso": "Primeiro", "departamento": "Enxe\u00f1ar\u00eda CivilMatem\u00e1ticas", "descripcion": "Avaliaci\u00f3n e an\u00e1lise de sistemas de recurso de auga. Xesti\u00f3n de auga subterr\u00e1nea. Xesti\u00f3n de auga de superficie. Extracci\u00f3n de auga e usos. M\u00e9todos de an\u00e1lise: identificaci\u00f3n, optimizaci\u00f3n, incertezas, obxectivos e control de plans de xesti\u00f3n de auga. Sistemas de xesti\u00f3n de datos por GIS. Dese\u00f1o de sistemas de recursos de auga e planificaci\u00f3n.", "nombre_asignatura": "Planificaci\u00f3n hidrol\u00f3xica e proxectos", "nombre_centro": "Escola T\u00e9cnica Superior de Enxe\u00f1eiros de Cami\u00f1os, Canais e Portos", "nombre_titulacion": "Mestrado Universitario en Enxe\u00f1ar\u00eda da Auga (plan 2012)", "profesores": [{"email": "j.acinas@udc.es", "nombre": "Acinas Garcia, Juan Ramon"}, {"email": "acacia.naves@udc.es", "nombre": "Naves Garc\u00eda-Rendueles, Acacia"}, {"email": "francisco.padilla@udc.es", "nombre": "Padilla Benitez, Francisco"}], "tipo": "Obrigatoria", "url": "https://guiadocente.udc.es/guia_docent/index.php?centre=632&ensenyament=632844&assignatura=632844201&any_academic=2018_19"}
{"index": {"_id": "632844204"}}
{"codigo": "632844204", "competencias": [{"codigo": "A13", "competencia": "Co\u00f1ecemento das t\u00e9cnicas experimentais aplicadas \u00e1 enxe\u00f1ar\u00eda da auga. Capacidade para dese\u00f1ar un experimento. Capacidade para desenvolver modelos reducidos en laboratorio. Capacidade para utilizar distintos tipos de instrumentaci\u00f3n experimental inclu\u00edndo caudal\u00edmetros, sondas de calado, veloc\u00edmetros tridimensionais, limn\u00f3metros, molinetes."}, {"codigo": "A14", "competencia": "Co\u00f1ecemento e comprensi\u00f3n do dese\u00f1o e construci\u00f3n de modelos a escala de estruturas hidr\u00e1ulicas. Comprensi\u00f3n das diferentes t\u00e9cnicas existentes de medici\u00f3ns de condici\u00f3ns f\u00edsicas (presi\u00f3n, temperatura, velocidade, etc.) dentro do campo da hidr\u00e1ulica. Co\u00f1ecemento de sistemas inform\u00e1ticos e electr\u00f3nicos de control e adquisici\u00f3n de datos en hidr\u00e1ulica (monitorizaci\u00f3n e control dunha conca fluvial, circu\u00edto hidr\u00e1ulico, etc.)."}, {"codigo": "A20", "competencia": "Destreza no manexo de equipos de medici\u00f3n de campo e laboratorio. Co\u00f1ecemento das metodolox\u00edas para o control de procesos e a determinaci\u00f3n de par\u00e1metros de dese\u00f1o de procesos de tratamento de augas"}, {"codigo": "B1", "competencia": "Resolver problemas de forma eficaz"}, {"codigo": "B2", "competencia": "Aplicar un pensamento cr\u00edtico, l\u00f3xico e creativo."}, {"codigo": "B3", "competencia": "Traballar de forma aut\u00f3noma con iniciativa"}, {"codigo": "B4", "competencia": "Comunicarse eficazmente nun ambiente de traballo"}, {"codigo": "B5", "competencia": "Reciclaxe continua de co\u00f1ecementos nunha perspectiva xeralista no \u00e1mbito global de actuaci\u00f3n da Enxe\u00f1ar\u00eda da Auga"}, {"codigo": "B6", "competencia": "Compresi\u00f3n da necesidade de analiza-la historia para entender o presente"}, {"codigo": "B7", "competencia": "Facilidade para a  integraci\u00f3n nos equipos multidisciplinares"}, {"codigo": "B8", "competencia": "Capacidade para organizar e planificar"}, {"codigo": "B9", "competencia": "Capacidade de an\u00e1lise, s\u00edntese e estruturaci\u00f3n da informaci\u00f3n e as ideas."}, {"codigo": "C1", "competencia": "Entender a importancia da cultura emprendedora e co\u00f1ecer os medios ao alcance das persoas emprendedoras"}, {"codigo": "C2", "competencia": "Valorar criticamente o co\u00f1ecemento, a tecnolox\u00eda e a informaci\u00f3n dispo\u00f1ible para resolver os problemas cos que deben enfrontarse."}, {"codigo": "C3", "competencia": "Asumir como profesional e cidad\u00e1n a importancia da aprendizaxe ao longo da vida."}, {"codigo": "C4", "competencia": "Valorar a importancia que ten a investigaci\u00f3n, a innovaci\u00f3n e o desenvolvemento tecnol\u00f3xico no avance socioecon\u00f3mico e cultural da sociedade."}, {"codigo": "C5", "competencia": "Posu\u00edr e comprender co\u00f1ecementos que acheguen unha base ou oportunidade de ser orixinais no desenvolvemento e/ou aplicaci\u00f3n de ideas, a mi\u00fado nun contexto de investigaci\u00f3n"}, {"codigo": "C6", "competencia": "Que os estudantes saiban aplicar os co\u00f1ecementos adquiridos e a s\u00faa capacidade de resoluci\u00f3n de problemas en \u00e1mbitos novos ou pouco co\u00f1ecidos dentro de contextos m\u00e1is amplos (ou multidisciplinares)relacionados coa s\u00faa \u00e1rea de estudo"}, {"codigo": "C7", "competencia": "Que os estudantes sexan capaces de integrar co\u00f1ecementos e enfrontarse \u00e1 complexidade de formular xu\u00edzos a partir dunha informaci\u00f3n que, sendo incompleta ou limitada, incl\u00faa reflexi\u00f3ns sobre as responsabilidades sociais e \u00e9ticas vinculadas \u00e1 aplicaci\u00f3n dos seus co\u00f1ecementos e xu\u00edzos"}, {"codigo": "C8", "competencia": "Que os estudantes saiban comunicar as s\u00faas conclusi\u00f3ns e os co\u00f1ecementos e raz\u00f3ns \u00faltimas que as sustentan a p\u00fablicos especializados e non especializados dun modo claro e sen ambig\u00fcidades"}, {"codigo": "C9", "competencia": "Que os estudantes pos\u00faan as habilidades de aprendizaxe que lles permitan continuar estudando dun modo que haber\u00e1 de ser en boa medida autodirixido ou aut\u00f3nomo"}], "contenidos": [{"subtemas": [{"subtema": "1.1 Introducci\u00f3n as probas e experimentaci\u00f3n en hidr\u00e1ulica"}], "temas": [{"tema": "1. Introducci\u00f3n"}]}, {"subtemas": [{"subtema": "2.1 T\u00e9cnicas experimentales en campo"}], "temas": [{"tema": "2. Secci\u00f3ns de control en continuo"}]}, {"subtemas": [{"subtema": "3.1 Sistemas de Instrumentaci\u00f3n (sensores, actuadores)"}, {"subtema": "3.2 M\u00f3dulos de control (PLC, adquisici\u00f3n de datos)"}, {"subtema": "3.3 Sistemas de Transmisi\u00f3n de Datos"}, {"subtema": ""}], "temas": [{"tema": "3. Hidrometr\u00eda. T\u00e9cnicas para medir e rexistrar par\u00e1metros da auga (nivel, fluxo, velocidade, etc.)."}]}], "coordinadores": [{"email": "juan.rabunal@udc.es", "nombre": "Rabu\u00f1al Dopico, Juan Ramon"}], "creditos": 6.0, "cuatrimestre": "1\u00ba cuadrimestre", "curso": "Primeiro", "departamento": "Computaci\u00f3nEnxe\u00f1ar\u00eda Civil", "descripcion": "Co\u00f1ecer e comprender o dese\u00f1o e construci\u00f3n de modelos a escala de estruturas hidr\u00e1ulicas. Comprender as distintas t\u00e9cnicas de medici\u00f3ns das condici\u00f3ns f\u00edsicas (presi\u00f3n, temperatura, velocidade, etc ..) no \u00e1mbito da hidr\u00e1ulica. Co\u00f1ecementos e pr\u00e1cticas con sistemas de ordenadores, dispositivos electr\u00f3nicos e sistemas de adquisici\u00f3n de datos hidr\u00e1ulicos (seguimento e control dunha conca hidrogr\u00e1fica, experiencias hidr\u00e1ulicas...).", "nombre_asignatura": "Hidr\u00e1ulica Experimental I", "nombre_centro": "Escola T\u00e9cnica Superior de Enxe\u00f1eiros de Cami\u00f1os, Canais e Portos", "nombre_titulacion": "Mestrado Universitario en Enxe\u00f1ar\u00eda da Auga (plan 2012)", "profesores": [{"email": "juan.rabunal@udc.es", "nombre": "Rabu\u00f1al Dopico, Juan Ramon"}, {"email": "ana.maria.vazquez@udc.es", "nombre": "V\u00e1zquez Gonz\u00e1lez, Ana Mar\u00eda"}], "tipo": "Optativa", "url": "https://guiadocente.udc.es/guia_docent/index.php?centre=632&ensenyament=632844&assignatura=632844204&any_academic=2018_19"}
{"index": {"_id": "632844205"}}
{"codigo": "632844205", "competencias": [], "contenidos": [{"subtemas": [{"subtema": "Hidr\u00e1ulica de canais (revisi\u00f3n)"}], "temas": [{"tema": "Fundamentos de Hidr\u00e1ulica de canais (revisi\u00f3n)"}]}, {"subtemas": [{"subtema": "Hidr\u00e1ulica computacional"}], "temas": [{"tema": "Fundamentos de Hidr\u00e1ulica computacional"}]}, {"subtemas": [{"subtema": "Saint-Venant"}, {"subtema": "Navier-Stokes"}, {"subtema": "Fluxo potencial"}, {"subtema": "Corriente-vorticidade"}, {"subtema": "Fluxo de Stokes"}, {"subtema": "Augas someras"}, {"subtema": "Conveci\u00f3n-difusi\u00f3n"}, {"subtema": "Darcy,..."}], "temas": [{"tema": "Ecuacions constitutivas"}]}, {"subtemas": [{"subtema": "Programaci\u00f3n Matlab"}], "temas": [{"tema": "Fundamentos de programaci\u00f3n Matlab"}]}, {"subtemas": [{"subtema": "Modelos hidrodin\u00e1micos"}, {"subtema": "Modelos en medio poroso"}, {"subtema": "Modelos hidroqu\u00edmicos"}], "temas": [{"tema": "Programaci\u00f3n de Fluxo en Elementos Finitos"}]}, {"subtemas": [{"subtema": "Fluxo en Elementos Finitos"}], "temas": [{"tema": "Fundamentos de promaci\u00f3n de fluxo en Elementos Finitos"}]}, {"subtemas": [{"subtema": "Programas comerciais"}], "temas": [{"tema": "Programas comerciais"}]}], "coordinadores": [{"email": "pablo.rodriguez-vellando@udc.es", "nombre": "Rodr\u00edguez-Vellando Fern\u00e1ndez-Carvajal, Pablo"}], "creditos": 6.0, "cuatrimestre": "1\u00ba cuadrimestre", "curso": "Primeiro", "departamento": "Enxe\u00f1ar\u00eda CivilMatem\u00e1ticas", "descripcion": "Fundamentos da caudal de canle aberta e din\u00e1mica de flu\u00eddos computacional. Ecuaci\u00f3ns fundamentais: Saint-Venant, Navier-Stokes, o fluxo potencial, stream-vorticidade, de fluxo de Stokes, augas superficiais, convecci\u00f3n-difusi\u00f3n, Darcy, ... Fundamentos da programaci\u00f3n Matlab. Programaci\u00f3n de elementos finitos de hidrodin\u00e1mico, medios porosos e modelos xeoqu\u00edmicos. Introduci\u00f3n de volumes finitos.", "nombre_asignatura": "Hidr\u00e1ulica Computacional I", "nombre_centro": "Escola T\u00e9cnica Superior de Enxe\u00f1eiros de Cami\u00f1os, Canais e Portos", "nombre_titulacion": "Mestrado Universitario en Enxe\u00f1ar\u00eda da Auga (plan 2012)", "profesores": [{"email": "jaime.fe@udc.es", "nombre": "Fe Marques, Jaime"}, {"email": "acacia.naves@udc.es", "nombre": "Naves Garc\u00eda-Rendueles, Acacia"}, {"email": "pablo.rodriguez-vellando@udc.es", "nombre": "Rodr\u00edguez-Vellando Fern\u00e1ndez-Carvajal, Pablo"}], "tipo": "Optativa", "url": "https://guiadocente.udc.es/guia_docent/index.php?centre=632&ensenyament=632844&assignatura=632844205&any_academic=2018_19"}
{"index": {"_id": "632844215"}}
{"codigo": "632844215", "competencias": [{"codigo": "A1", "competencia": "Co\u00f1ecemento, comprensi\u00f3n e capacidade de aplicar a lexislaci\u00f3n relacionada coa Enxe\u00f1ar\u00eda de auga para o desenvolvemento da profesi\u00f3n. Capacidade de analizar os mecanismos de funcionamento da econom\u00eda e xesti\u00f3n p\u00fablica e privada de auga"}, {"codigo": "A2", "competencia": "Capacidade para resolver os problemas f\u00edsicos b\u00e1sicos de Enxe\u00f1ar\u00eda da Auga, e co\u00f1ecemento te\u00f3rico e pr\u00e1ctico das propiedades f\u00edsicas, qu\u00edmicas, mec\u00e1nicas e tecnol\u00f3xicas da auga"}, {"codigo": "A3", "competencia": "Capacidade de aplicar a mec\u00e1nica dos flu\u00eddos e as ecuaci\u00f3ns fundamentais de fluxo en tubulaci\u00f3ns, c\u00e1lculo de presi\u00f3n e superficie libre"}, {"codigo": "A4", "competencia": "Capacidade para aplicar os co\u00f1ecementos hidrol\u00f3xicos e os fundamentos de Mec\u00e1nica de Flu\u00eddos nos m\u00e9todos de c\u00e1lculo sobre Hidrolox\u00eda, tanto de superficie coma subterr\u00e1nea. Capacidade para realizar a avaliaci\u00f3n dos recursos hidr\u00e1ulicos e aplicar as principais ferramentas para a planificaci\u00f3n hidrol\u00f3xica e para a regulaci\u00f3n e laminaci\u00f3n das achegas h\u00eddricas. Capacidade para analizar a hidr\u00e1ulica fluvial e aplicar os co\u00f1ecementos adquiridos na restauraci\u00f3n de canles e demais actuaci\u00f3ns sobre r\u00edos e os seus \u00e1mbitos."}, {"codigo": "A5", "competencia": "Co\u00f1ecemento de conceptos b\u00e1sicos de ecolox\u00eda aplicados \u00e1 Enxe\u00f1ar\u00eda da Auga. Capacidade para actuar de forma respectuosa e enriquecedora sobre o medio contribu\u00edndo ao desenvolvemento sostible. Capacidade de an\u00e1lise da calidade ecol\u00f3xica da auga. Co\u00f1ecemento dos principios b\u00e1sicos da ecolox\u00eda e comprensi\u00f3n do funcionamento dos sistemas acu\u00e1ticos continentais."}, {"codigo": "A7", "competencia": "Co\u00f1ecemento dos fundamentos sobre a avaliaci\u00f3n dos recursos hidr\u00e1ulicos e as principais ferramentas para a planificaci\u00f3n hidrol\u00f3xica, a partir das xustificaci\u00f3ns te\u00f3ricas e as aplicaci\u00f3ns pr\u00e1cticas que conducen \u00e1 resoluci\u00f3n de problemas espec\u00edficos e a utilizaci\u00f3n de metodolox\u00edas actualizadas (programas e modelos) para a avaliaci\u00f3n da explotaci\u00f3n, os usos, a defensa, a xesti\u00f3n e a planificaci\u00f3n conxunta das augas subterr\u00e1neas e superficiais. Co\u00f1ecemento dos plans hidrol\u00f3xicos nacionais"}, {"codigo": "A8", "competencia": "Capacidade de calcular e xestionar avenidas extremas"}, {"codigo": "A9", "competencia": "Co\u00f1ecementos de sistemas de informaci\u00f3n xeogr\u00e1fica (SIG) aplicados \u00e1 xesti\u00f3n de recursos h\u00eddricos. Co\u00f1ecemento das funcionalidades b\u00e1sicas de sistemas para a an\u00e1lise dos datos xeogr\u00e1ficos, mediante a utilizaci\u00f3n de ferramentas SIG de apoio na xesti\u00f3n e a an\u00e1lise de datos sobre recursos h\u00eddricos. Co\u00f1ecemento das caracter\u00edsticas dos datos geoespaciales e nos procesos para a s\u00faa adquisici\u00f3n, almacenamento, tratamento, an\u00e1lise, modelado e presentaci\u00f3n"}, {"codigo": "A10", "competencia": "Comprensi\u00f3n dos fundamentos da din\u00e1mica de flu\u00eddos computacional (CFD). Capacidade de elaborar c\u00f3digos que resolvan o fluxo incompresible tanto en superficie libre como en medio poroso"}, {"codigo": "A11", "competencia": "Co\u00f1ecemento de modelos num\u00e9ricos aplicados a enxe\u00f1ar\u00eda hidr\u00e1ulica. Capacidade utilizar e analizar os resultados dun modelo hidr\u00e1ulico. Capacidade de dese\u00f1ar, desenvolver e analizar os esquemas num\u00e9ricos utilizados nun modelo hidr\u00e1ulico."}, {"codigo": "A12", "competencia": "Capacidade para utilizar modelos num\u00e9ricos comerciais de fluxo en l\u00e1mina libre, fluxo en presi\u00f3n, drenaxes, c\u00e1lculo hidrol\u00f3xico de avenidas, transporte de sedimentos en r\u00edos e zonas costeiras, transporte de contaminantes e propagaci\u00f3n de ondada"}, {"codigo": "A13", "competencia": "Co\u00f1ecemento das t\u00e9cnicas experimentais aplicadas \u00e1 enxe\u00f1ar\u00eda da auga. Capacidade para dese\u00f1ar un experimento. Capacidade para desenvolver modelos reducidos en laboratorio. Capacidade para utilizar distintos tipos de instrumentaci\u00f3n experimental inclu\u00edndo caudal\u00edmetros, sondas de calado, veloc\u00edmetros tridimensionais, limn\u00f3metros, molinetes."}, {"codigo": "A14", "competencia": "Co\u00f1ecemento e comprensi\u00f3n do dese\u00f1o e construci\u00f3n de modelos a escala de estruturas hidr\u00e1ulicas. Comprensi\u00f3n das diferentes t\u00e9cnicas existentes de medici\u00f3ns de condici\u00f3ns f\u00edsicas (presi\u00f3n, temperatura, velocidade, etc.) dentro do campo da hidr\u00e1ulica. Co\u00f1ecemento de sistemas inform\u00e1ticos e electr\u00f3nicos de control e adquisici\u00f3n de datos en hidr\u00e1ulica (monitorizaci\u00f3n e control dunha conca fluvial, circu\u00edto hidr\u00e1ulico, etc.)."}, {"codigo": "A15", "competencia": "Visi\u00f3n xeral e equilibrada dos aspectos b\u00e1sicos e aplicados da Hidrolox\u00eda Subterr\u00e1nea dende as necesidades propias da enxe\u00f1ar\u00eda civil. Capacidade de proxectar e interpretar os distintos ensaios hidr\u00e1ulicos de caracterizaci\u00f3n hidrodin\u00e1mica do medio, interpretar mapas hidroxeol\u00f3xicos e co\u00f1ecer aspectos construtivos das captaci\u00f3ns."}, {"codigo": "A16", "competencia": "Comprensi\u00f3n das bases da qu\u00edmica da auga, que condiciona totalmente o seu comportamento no medio natural e os seus usos. Co\u00f1ecemento e comprensi\u00f3n das diferentes normativas de calidade de augas tanto a nivel auton\u00f3mico, nacional e europeo."}, {"codigo": "A17", "competencia": "Visi\u00f3n global do que \u00e9 un sistema de abastecemento a trav\u00e9s dos distintos elementos que o compo\u00f1en, \u00e1 vez que os co\u00f1ecementos necesarios para o seu dimensionamento b\u00e1sico e dos aspectos tecnol\u00f3xicos relacionados coa s\u00faa xesti\u00f3n e implantaci\u00f3n construtiva"}, {"codigo": "A18", "competencia": "Capacidade de realizar un aproveitamento integral e eficiente do recurso h\u00eddrico. Co\u00f1ecemento do funcionamento dos organismos de conca e an\u00e1lise xeral dos proxectos de enxe\u00f1ar\u00eda da auga no \u00e1mbito da cooperaci\u00f3n ao desenvolvemento e a axuda humanitaria"}, {"codigo": "A19", "competencia": "Co\u00f1ecemento de tratamentos avanzados da auga con diferentes fins: depuraci\u00f3n, reutilizaci\u00f3n, potabilizaci\u00f3n, eliminaci\u00f3n de nutrientes e tratamentos de rexeneraci\u00f3n"}, {"codigo": "A20", "competencia": "Destreza no manexo de equipos de medici\u00f3n de campo e laboratorio. Co\u00f1ecemento das metodolox\u00edas para o control de procesos e a determinaci\u00f3n de par\u00e1metros de dese\u00f1o de procesos de tratamento de augas"}, {"codigo": "A21", "competencia": "Co\u00f1ecemento dos modelos de calidade de augas. Capacidade de analizar e propo\u00f1er soluci\u00f3ns a problemas de xesti\u00f3n da calidade da auga."}, {"codigo": "A22", "competencia": "Capacidade para planificar, proxectar, dimensionar, dirixir a construci\u00f3n e a explotaci\u00f3n de conduci\u00f3ns hidr\u00e1ulicas, presas, aproveitamentos hidroel\u00e9ctricos, sistemas de regulaci\u00f3n de r\u00edos, regad\u00edos, obras fluviais e outras obras hidr\u00e1ulicas e hidrol\u00f3xicas"}, {"codigo": "A23", "competencia": "Co\u00f1ecementos fundamentais sobre o consumo de enerx\u00eda e das s\u00faas implicaci\u00f3ns ambientais dentro dun desenvolvemento sostible"}, {"codigo": "A24", "competencia": "Capacidade para dese\u00f1ar e xestionar o abastecemento e saneamento dunha poboaci\u00f3n, inclu\u00edndo dese\u00f1o e proxecto de soluci\u00f3ns de saneamento, drenaxe e xesti\u00f3n avanzada de augas residuais na cidade. Co\u00f1ecemento sobre procesos avanzados de depuraci\u00f3n para a eliminaci\u00f3n de nutrientes e de estratexias de xesti\u00f3n de augas tempo de chuvia."}, {"codigo": "A25", "competencia": "Co\u00f1ecemento e comprensi\u00f3n do funcionamento dos ecosistemas e os factores ambientais co fin de inventariar o medio, aplicando metodolox\u00edas de valoraci\u00f3n de impactos para o seu emprego en estudos e avaliaci\u00f3ns de Impacto Ambiental."}, {"codigo": "B1", "competencia": "Resolver problemas de forma eficaz"}, {"codigo": "B2", "competencia": "Aplicar un pensamento cr\u00edtico, l\u00f3xico e creativo."}, {"codigo": "B3", "competencia": "Traballar de forma aut\u00f3noma con iniciativa"}, {"codigo": "B4", "competencia": "Comunicarse eficazmente nun ambiente de traballo"}, {"codigo": "B5", "competencia": "Reciclaxe continua de co\u00f1ecementos nunha perspectiva xeralista no \u00e1mbito global de actuaci\u00f3n da Enxe\u00f1ar\u00eda da Auga"}, {"codigo": "B6", "competencia": "Compresi\u00f3n da necesidade de analiza-la historia para entender o presente"}, {"codigo": "B7", "competencia": "Facilidade para a  integraci\u00f3n nos equipos multidisciplinares"}, {"codigo": "B8", "competencia": "Capacidade para organizar e planificar"}, {"codigo": "B9", "competencia": "Capacidade de an\u00e1lise, s\u00edntese e estruturaci\u00f3n da informaci\u00f3n e as ideas."}, {"codigo": "C1", "competencia": "Entender a importancia da cultura emprendedora e co\u00f1ecer os medios ao alcance das persoas emprendedoras"}, {"codigo": "C2", "competencia": "Valorar criticamente o co\u00f1ecemento, a tecnolox\u00eda e a informaci\u00f3n dispo\u00f1ible para resolver os problemas cos que deben enfrontarse."}, {"codigo": "C3", "competencia": "Asumir como profesional e cidad\u00e1n a importancia da aprendizaxe ao longo da vida."}, {"codigo": "C4", "competencia": "Valorar a importancia que ten a investigaci\u00f3n, a innovaci\u00f3n e o desenvolvemento tecnol\u00f3xico no avance socioecon\u00f3mico e cultural da sociedade."}, {"codigo": "C5", "competencia": "Posu\u00edr e comprender co\u00f1ecementos que acheguen unha base ou oportunidade de ser orixinais no desenvolvemento e/ou aplicaci\u00f3n de ideas, a mi\u00fado nun contexto de investigaci\u00f3n"}, {"codigo": "C6", "competencia": "Que os estudantes saiban aplicar os co\u00f1ecementos adquiridos e a s\u00faa capacidade de resoluci\u00f3n de problemas en \u00e1mbitos novos ou pouco co\u00f1ecidos dentro de contextos m\u00e1is amplos (ou multidisciplinares)relacionados coa s\u00faa \u00e1rea de estudo"}, {"codigo": "C7", "competencia": "Que os estudantes sexan capaces de integrar co\u00f1ecementos e enfrontarse \u00e1 complexidade de formular xu\u00edzos a partir dunha informaci\u00f3n que, sendo incompleta ou limitada, incl\u00faa reflexi\u00f3ns sobre as responsabilidades sociais e \u00e9ticas vinculadas \u00e1 aplicaci\u00f3n dos seus co\u00f1ecementos e xu\u00edzos"}, {"codigo": "C8", "competencia": "Que os estudantes saiban comunicar as s\u00faas conclusi\u00f3ns e os co\u00f1ecementos e raz\u00f3ns \u00faltimas que as sustentan a p\u00fablicos especializados e non especializados dun modo claro e sen ambig\u00fcidades"}, {"codigo": "C9", "competencia": "Que os estudantes pos\u00faan as habilidades de aprendizaxe que lles permitan continuar estudando dun modo que haber\u00e1 de ser en boa medida autodirixido ou aut\u00f3nomo"}], "contenidos": [{"subtemas": [{"subtema": "Non da lugar"}], "temas": [{"tema": "As pr\u00e1cticas en empresas supo\u00f1er\u00e1n o desenvolvemento dun exercicio profesional nos diversos campos relacionados coa Enxe\u00f1ar\u00eda da Auga, dentro dunha das empresas coas que se asinase un"}, {"tema": "acordo de colaboraci\u00f3n por parte das universidades participantes."}, {"tema": "As pr\u00e1cticas en empresa poder\u00e1n desenvolverse en empresas e instituci\u00f3ns ligadas \u00e1s universidades da Coru\u00f1a ou Magdeburgo, ou outras universidades coas que estas te\u00f1an acordos de colaboraci\u00f3n. A"}, {"tema": "asignaci\u00f3n de destinos considerar\u00e1 as prioridades dos alumnos e en caso de conflito seguir\u00e1 criterios estritamente acad\u00e9micos."}, {"tema": "Designarase un titor na universidade de acollida para que supervise as devanditas pr\u00e1cticas, \u00e1 finalizaci\u00f3n de as cales recepcionar un informe sobre os traballos realizados, debendo valorar o car\u00e1cter axeitado de estes."}, {"tema": "A duraci\u00f3n das devanditas pr\u00e1cticas ser\u00e1 de entre un e tres meses, prorrogables por acordo entre as partes."}, {"tema": "De xeito an\u00e1logo, admitirase o desenvolvemento destas pr\u00e1cticas nas instalaci\u00f3ns das propias universidades participantes, colaborando en proxectos de investigaci\u00f3n das distintas \u00e1reas implicadas."}, {"tema": "Isto constituir\u00e1 o chamado pr\u00e1cticum universitario."}, {"tema": "A relaci\u00f3n contractual ser\u00e1 remunerada preferiblemente en calquera dos casos."}]}, {"subtemas": [{"subtema": "Non da lugar"}], "temas": [{"tema": "Pr\u00e1cticas en empresas ou centros  de investigaci\u00f3n de Espa\u00f1a, Alemania ou  extranxeiras"}]}], "coordinadores": [{"email": "ana.maria.vazquez@udc.es", "nombre": "V\u00e1zquez Gonz\u00e1lez, Ana Mar\u00eda"}], "creditos": 15.0, "cuatrimestre": "1\u00ba cuadrimestre", "curso": "Primeiro", "departamento": "Enxe\u00f1ar\u00eda CivilMatem\u00e1ticas", "descripcion": "Os estudantes elixir\u00e1n, entre diferentes instituci\u00f3ns, nacionais ou internacionais, onde cursar\u00e1n o per\u00edodo de pr\u00e1cticas O tempo m\u00ednimo \u00e9 de 10 semanas e o m\u00e1ximo \u00e9 de 6 meses. A xornada ser\u00e1 a tempo completo", "nombre_asignatura": "Estancia en pr\u00e1cticas/pr\u00e1cticum", "nombre_centro": "Escola T\u00e9cnica Superior de Enxe\u00f1eiros de Cami\u00f1os, Canais e Portos", "nombre_titulacion": "Mestrado Universitario en Enxe\u00f1ar\u00eda da Auga (plan 2012)", "profesores": [{"email": "ana.maria.vazquez@udc.es", "nombre": "V\u00e1zquez Gonz\u00e1lez, Ana Mar\u00eda"}], "tipo": "Obrigatoria", "url": "https://guiadocente.udc.es/guia_docent/index.php?centre=632&ensenyament=632844&assignatura=632844215&any_academic=2018_19"}
{"index": {"_id": "632844203"}}
{"codigo": "632844203", "competencias": [{"codigo": "A1", "competencia": "Co\u00f1ecemento, comprensi\u00f3n e capacidade de aplicar a lexislaci\u00f3n relacionada coa Enxe\u00f1ar\u00eda de auga para o desenvolvemento da profesi\u00f3n. Capacidade de analizar os mecanismos de funcionamento da econom\u00eda e xesti\u00f3n p\u00fablica e privada de auga"}, {"codigo": "A2", "competencia": "Capacidade para resolver os problemas f\u00edsicos b\u00e1sicos de Enxe\u00f1ar\u00eda da Auga, e co\u00f1ecemento te\u00f3rico e pr\u00e1ctico das propiedades f\u00edsicas, qu\u00edmicas, mec\u00e1nicas e tecnol\u00f3xicas da auga"}, {"codigo": "A5", "competencia": "Co\u00f1ecemento de conceptos b\u00e1sicos de ecolox\u00eda aplicados \u00e1 Enxe\u00f1ar\u00eda da Auga. Capacidade para actuar de forma respectuosa e enriquecedora sobre o medio contribu\u00edndo ao desenvolvemento sostible. Capacidade de an\u00e1lise da calidade ecol\u00f3xica da auga. Co\u00f1ecemento dos principios b\u00e1sicos da ecolox\u00eda e comprensi\u00f3n do funcionamento dos sistemas acu\u00e1ticos continentais."}, {"codigo": "A16", "competencia": "Comprensi\u00f3n das bases da qu\u00edmica da auga, que condiciona totalmente o seu comportamento no medio natural e os seus usos. Co\u00f1ecemento e comprensi\u00f3n das diferentes normativas de calidade de augas tanto a nivel auton\u00f3mico, nacional e europeo."}, {"codigo": "A19", "competencia": "Co\u00f1ecemento de tratamentos avanzados da auga con diferentes fins: depuraci\u00f3n, reutilizaci\u00f3n, potabilizaci\u00f3n, eliminaci\u00f3n de nutrientes e tratamentos de rexeneraci\u00f3n"}, {"codigo": "A20", "competencia": "Destreza no manexo de equipos de medici\u00f3n de campo e laboratorio. Co\u00f1ecemento das metodolox\u00edas para o control de procesos e a determinaci\u00f3n de par\u00e1metros de dese\u00f1o de procesos de tratamento de augas"}, {"codigo": "A21", "competencia": "Co\u00f1ecemento dos modelos de calidade de augas. Capacidade de analizar e propo\u00f1er soluci\u00f3ns a problemas de xesti\u00f3n da calidade da auga."}, {"codigo": "A25", "competencia": "Co\u00f1ecemento e comprensi\u00f3n do funcionamento dos ecosistemas e os factores ambientais co fin de inventariar o medio, aplicando metodolox\u00edas de valoraci\u00f3n de impactos para o seu emprego en estudos e avaliaci\u00f3ns de Impacto Ambiental."}, {"codigo": "B1", "competencia": "Resolver problemas de forma eficaz"}, {"codigo": "B2", "competencia": "Aplicar un pensamento cr\u00edtico, l\u00f3xico e creativo."}, {"codigo": "B3", "competencia": "Traballar de forma aut\u00f3noma con iniciativa"}, {"codigo": "B4", "competencia": "Comunicarse eficazmente nun ambiente de traballo"}, {"codigo": "B5", "competencia": "Reciclaxe continua de co\u00f1ecementos nunha perspectiva xeralista no \u00e1mbito global de actuaci\u00f3n da Enxe\u00f1ar\u00eda da Auga"}, {"codigo": "B6", "competencia": "Compresi\u00f3n da necesidade de analiza-la historia para entender o presente"}, {"codigo": "B7", "competencia": "Facilidade para a  integraci\u00f3n nos equipos multidisciplinares"}, {"codigo": "B8", "competencia": "Capacidade para organizar e planificar"}, {"codigo": "B9", "competencia": "Capacidade de an\u00e1lise, s\u00edntese e estruturaci\u00f3n da informaci\u00f3n e as ideas."}, {"codigo": "C1", "competencia": "Entender a importancia da cultura emprendedora e co\u00f1ecer os medios ao alcance das persoas emprendedoras"}, {"codigo": "C2", "competencia": "Valorar criticamente o co\u00f1ecemento, a tecnolox\u00eda e a informaci\u00f3n dispo\u00f1ible para resolver os problemas cos que deben enfrontarse."}, {"codigo": "C3", "competencia": "Asumir como profesional e cidad\u00e1n a importancia da aprendizaxe ao longo da vida."}, {"codigo": "C4", "competencia": "Valorar a importancia que ten a investigaci\u00f3n, a innovaci\u00f3n e o desenvolvemento tecnol\u00f3xico no avance socioecon\u00f3mico e cultural da sociedade."}, {"codigo": "C5", "competencia": "Posu\u00edr e comprender co\u00f1ecementos que acheguen unha base ou oportunidade de ser orixinais no desenvolvemento e/ou aplicaci\u00f3n de ideas, a mi\u00fado nun contexto de investigaci\u00f3n"}, {"codigo": "C6", "competencia": "Que os estudantes saiban aplicar os co\u00f1ecementos adquiridos e a s\u00faa capacidade de resoluci\u00f3n de problemas en \u00e1mbitos novos ou pouco co\u00f1ecidos dentro de contextos m\u00e1is amplos (ou multidisciplinares)relacionados coa s\u00faa \u00e1rea de estudo"}, {"codigo": "C7", "competencia": "Que os estudantes sexan capaces de integrar co\u00f1ecementos e enfrontarse \u00e1 complexidade de formular xu\u00edzos a partir dunha informaci\u00f3n que, sendo incompleta ou limitada, incl\u00faa reflexi\u00f3ns sobre as responsabilidades sociais e \u00e9ticas vinculadas \u00e1 aplicaci\u00f3n dos seus co\u00f1ecementos e xu\u00edzos"}, {"codigo": "C8", "competencia": "Que os estudantes saiban comunicar as s\u00faas conclusi\u00f3ns e os co\u00f1ecementos e raz\u00f3ns \u00faltimas que as sustentan a p\u00fablicos especializados e non especializados dun modo claro e sen ambig\u00fcidades"}, {"codigo": "C9", "competencia": "Que os estudantes pos\u00faan as habilidades de aprendizaxe que lles permitan continuar estudando dun modo que haber\u00e1 de ser en boa medida autodirixido ou aut\u00f3nomo"}], "contenidos": [{"subtemas": [{"subtema": "Estrutura e propiedades da auga"}, {"subtema": "- Diagrama de fase da auga -"}, {"subtema": "Densidade, salinidade, capacidade de calor, viscosidade"}, {"subtema": "- Estratificaci\u00f3n oce\u00e1nica e circulaci\u00f3n termohalina"}, {"subtema": "- Transformaci\u00f3ns de fase da auga"}, {"subtema": "- Estereoqu\u00edmica da mol\u00e9cula de auga"}, {"subtema": "Conceptos b\u00e1sicos de qu\u00edmica"}, {"subtema": "- Leis ponderales"}, {"subtema": "- Conservaci\u00f3n masiva"}, {"subtema": "- Mol e estequiometria"}, {"subtema": "- Unidades de concentraci\u00f3n"}, {"subtema": "- Propiedades de intensidade e capacidade Propiedades coligativas"}, {"subtema": "- Adhesi\u00f3n, cohesi\u00f3n e capilaridade"}, {"subtema": "Enlace qu\u00edmico e interacci\u00f3ns acuosas"}, {"subtema": "- Tipos de ligaz\u00f3ns qu\u00edmicas"}, {"subtema": "- Interacci\u00f3ns acuosas"}, {"subtema": "- Emulsiones e soluciones Equilibrio e equilibrio qu\u00edmico"}, {"subtema": "- Sistemas termodin\u00e1micos e leis"}, {"subtema": "- Compo\u00f1entes, fases e especies"}, {"subtema": "- Teor\u00eda de colisi\u00f3n e reacci\u00f3ns qu\u00edmicas"}, {"subtema": "- Lei de acci\u00f3n masiva e a constante de equilibrio"}, {"subtema": "- O principio de Lle Chatelier"}, {"subtema": "- Cin\u00e9tica qu\u00edmica e velocidades de reacci\u00f3n"}], "temas": [{"tema": "Conceptos b\u00e1sicos da qu\u00edmica da agua"}]}, {"subtemas": [{"subtema": "Planificaci\u00f3n dunha mostraxe para o estudo da cadad da auga"}, {"subtema": "An\u00e1lise de rutina e especiais"}, {"subtema": "Mostraxe de auga: ferramentas e metodolox\u00eda"}, {"subtema": "Pretratamiento de mostra e preservaci\u00f3n Determinaci\u00f3n de par\u00e1metros in situ fronte a laboratorio"}, {"subtema": "Mostraxe de sistemas de auga"}, {"subtema": "- Mostraxe de augas subterr\u00e1neas e equipo especial"}, {"subtema": "- Precipitaci\u00f3n"}, {"subtema": "- Augas superficiais (arroios e r\u00edos)"}, {"subtema": "- Mostraxe de lagos e encoros"}], "temas": [{"tema": "Mostraxe e monitorizaci\u00f3n"}]}, {"subtemas": [{"subtema": "Medici\u00f3ns experimentais"}, {"subtema": "Estat\u00edsticas b\u00e1sicas"}, {"subtema": "- Momentos estat\u00edsticos"}, {"subtema": "- Funci\u00f3ns de distribuci\u00f3n e estat\u00edsticas non  param\u00e9tricas"}, {"subtema": "-  Quantiles"}, {"subtema": "- Valores at\u00edpicos"}, {"subtema": "Qu\u00edmica anal\u00edtica b\u00e1sica:"}, {"subtema": "- Precisi\u00f3n"}, {"subtema": "- Exactitude"}, {"subtema": "- Erro e nesgo"}, {"subtema": "- Calibraci\u00f3n e l\u00edmites anal\u00edticos"}, {"subtema": "Avaliaci\u00f3n de calidade:"}, {"subtema": "- Recomendaci\u00f3ns e regras xerais"}, {"subtema": "An\u00e1lises cuantitativas e cualitativas"}, {"subtema": "Selecci\u00f3n de t\u00e9cnicas anal\u00edticas instrumentais:"}, {"subtema": "- Titulaci\u00f3ns"}, {"subtema": "- M\u00e9todos  espectrom\u00e9tricos"}, {"subtema": "- M\u00e9todos  cromatogr\u00e1ficos"}, {"subtema": ""}, {"subtema": ""}], "temas": [{"tema": "T\u00e9cnicas anal\u00edticas e evaluaci\u00f3n da calidade"}]}, {"subtemas": [{"subtema": "Estudo gr\u00e1fico"}, {"subtema": "- mostras de auga individuais"}, {"subtema": "- mostras de auga m\u00faltiples"}, {"subtema": "T\u00e9cnicas avanzadas de gr\u00e1ficos e an\u00e1lises"}, {"subtema": "- Correlaci\u00f3ns e correlaci\u00f3ns falsas"}, {"subtema": "- Relaci\u00f3ns complexas"}, {"subtema": "- Concentraci\u00f3ns axustadas por tempo e fluxo"}, {"subtema": "- An\u00e1lise de tendencias temporais"}, {"subtema": "- An\u00e1lises de series temporais"}, {"subtema": "Ferramentas de an\u00e1lises:"}, {"subtema": "- Tendencias temporais"}, {"subtema": "-  PAST"}, {"subtema": ""}, {"subtema": ""}], "temas": [{"tema": "An\u00e1lise de datos e interpretaci\u00f3n"}]}, {"subtemas": [{"subtema": "O ciclo da auga e o orzamento mundial de enerx\u00eda"}, {"subtema": "Precipitaci\u00f3n"}, {"subtema": "- Compo\u00f1entes da precipitaci\u00f3n ( humedade, saraiba, n\u00e9boa, etc.)"}, {"subtema": "- Mostraxe de precipitaci\u00f3n"}, {"subtema": "- Interacci\u00f3ns choiva / bosque / chan"}, {"subtema": "-  Smog e  smog  fotoqu\u00edmico"}, {"subtema": "- Condutores meteorol\u00f3xicos e sombras de choiva"}, {"subtema": "- Composici\u00f3n qu\u00edmica da precipitaci\u00f3n"}, {"subtema": "-  roc\u00edo"}, {"subtema": "- Choiva aceda"}, {"subtema": "- Efectos globais sobre a precipitaci\u00f3n"}, {"subtema": "- Carga cr\u00edtica"}, {"subtema": "- Efectos locais na precipitaci\u00f3n"}, {"subtema": ""}, {"subtema": ""}], "temas": [{"tema": "Interpretaci\u00f3n da calidade das augas naturais (parte I)"}]}, {"subtemas": [{"subtema": "Rios e correntes"}, {"subtema": "- Concas e concas hidrogr\u00e1ficas"}, {"subtema": "- Procesos fluviais - Zonas hiporreicas"}, {"subtema": "- ciclos Diel"}, {"subtema": "- Constitu\u00edntes maioritarios e procesos"}, {"subtema": "- Dependencias de espazo e tempo en sistemas fluviais"}], "temas": [{"tema": "Interpretaci\u00f3n da calidade das augas naturais (parte II)"}]}, {"subtemas": [{"subtema": "Lagos e encoros"}, {"subtema": "- Contornas de auga doce e zonificaci\u00f3n ecol\u00f3xica"}, {"subtema": "- Tipos de lago"}, {"subtema": "- O desastre do mar de Aral"}, {"subtema": "- Casos especiais: encoros, lagos de foxo e lagos subglaciales"}, {"subtema": "- Tempo de residencia"}, {"subtema": "- Estudos morfom\u00e9tricos: metodolox\u00eda e descriptores"}, {"subtema": "- Orzamentos enerx\u00e9ticos en lagos e encoros"}, {"subtema": "- Clasificaci\u00f3n t\u00e9rmica de lagos e encoros"}, {"subtema": "- Luz, atenuaci\u00f3n e transparencia"}, {"subtema": "- Os\u00edxeno"}, {"subtema": "- Os ciclos de C, N e P e os seus sistemas axustados"}], "temas": [{"tema": "Interpretaci\u00f3n da calidade das augas naturais (parte III)"}]}], "coordinadores": [{"email": "jorge.delgado@udc.es", "nombre": "Delgado Martin, Jordi"}], "creditos": 6.0, "cuatrimestre": "1\u00ba cuadrimestre", "curso": "Primeiro", "departamento": "Enxe\u00f1ar\u00eda Civil", "descripcion": "Esta materia ten como obxectivo presentar alg\u00fans conceptos b\u00e1sicos sobre a f\u00edsica e a qu\u00edmica das augas naturais, as\u00ed como algunhas ideas crave sobre a calidade da auga. Os conceptos elementais de qu\u00edmica da auga comb\u00ednanse con outros temas pr\u00e1cticos, como a mostraxe de auga natural, a an\u00e1lise de datos e a representaci\u00f3n gr\u00e1fica. Os contidos m\u00e1is avanzados incl\u00faen a descrici\u00f3n dos procesos que gobernan a variabilidade da composici\u00f3n qu\u00edmica das augas naturais nos seus diferentes reservorios (precipitaci\u00f3n, sistemas l\u00f3ticos continentais e l\u00e9nticos, augas subterr\u00e1neas, auga de mar).", "nombre_asignatura": "F\u00edsico-qu\u00edmica e calidade da auga", "nombre_centro": "Escola T\u00e9cnica Superior de Enxe\u00f1eiros de Cami\u00f1os, Canais e Portos", "nombre_titulacion": "Mestrado Universitario en Enxe\u00f1ar\u00eda da Auga (plan 2012)", "profesores": [{"email": "jorge.delgado@udc.es", "nombre": "Delgado Martin, Jordi"}, {"email": "ana.maria.vazquez@udc.es", "nombre": "V\u00e1zquez Gonz\u00e1lez, Ana Mar\u00eda"}], "tipo": "Obrigatoria", "url": "https://guiadocente.udc.es/guia_docent/index.php?centre=632&ensenyament=632844&assignatura=632844203&any_academic=2018_19"}
{"index": {"_id": "632844216"}}
{"codigo": "632844216", "competencias": [{"codigo": "A1", "competencia": "Co\u00f1ecemento, comprensi\u00f3n e capacidade de aplicar a lexislaci\u00f3n relacionada coa Enxe\u00f1ar\u00eda de auga para o desenvolvemento da profesi\u00f3n. Capacidade de analizar os mecanismos de funcionamento da econom\u00eda e xesti\u00f3n p\u00fablica e privada de auga"}, {"codigo": "A2", "competencia": "Capacidade para resolver os problemas f\u00edsicos b\u00e1sicos de Enxe\u00f1ar\u00eda da Auga, e co\u00f1ecemento te\u00f3rico e pr\u00e1ctico das propiedades f\u00edsicas, qu\u00edmicas, mec\u00e1nicas e tecnol\u00f3xicas da auga"}, {"codigo": "A3", "competencia": "Capacidade de aplicar a mec\u00e1nica dos flu\u00eddos e as ecuaci\u00f3ns fundamentais de fluxo en tubulaci\u00f3ns, c\u00e1lculo de presi\u00f3n e superficie libre"}, {"codigo": "A4", "competencia": "Capacidade para aplicar os co\u00f1ecementos hidrol\u00f3xicos e os fundamentos de Mec\u00e1nica de Flu\u00eddos nos m\u00e9todos de c\u00e1lculo sobre Hidrolox\u00eda, tanto de superficie coma subterr\u00e1nea. Capacidade para realizar a avaliaci\u00f3n dos recursos hidr\u00e1ulicos e aplicar as principais ferramentas para a planificaci\u00f3n hidrol\u00f3xica e para a regulaci\u00f3n e laminaci\u00f3n das achegas h\u00eddricas. Capacidade para analizar a hidr\u00e1ulica fluvial e aplicar os co\u00f1ecementos adquiridos na restauraci\u00f3n de canles e demais actuaci\u00f3ns sobre r\u00edos e os seus \u00e1mbitos."}, {"codigo": "A5", "competencia": "Co\u00f1ecemento de conceptos b\u00e1sicos de ecolox\u00eda aplicados \u00e1 Enxe\u00f1ar\u00eda da Auga. Capacidade para actuar de forma respectuosa e enriquecedora sobre o medio contribu\u00edndo ao desenvolvemento sostible. Capacidade de an\u00e1lise da calidade ecol\u00f3xica da auga. Co\u00f1ecemento dos principios b\u00e1sicos da ecolox\u00eda e comprensi\u00f3n do funcionamento dos sistemas acu\u00e1ticos continentais."}, {"codigo": "A6", "competencia": "Capacidade de analizar os mecanismos de funcionamento da econom\u00eda e xesti\u00f3n p\u00fablica e privada de auga"}, {"codigo": "A7", "competencia": "Co\u00f1ecemento dos fundamentos sobre a avaliaci\u00f3n dos recursos hidr\u00e1ulicos e as principais ferramentas para a planificaci\u00f3n hidrol\u00f3xica, a partir das xustificaci\u00f3ns te\u00f3ricas e as aplicaci\u00f3ns pr\u00e1cticas que conducen \u00e1 resoluci\u00f3n de problemas espec\u00edficos e a utilizaci\u00f3n de metodolox\u00edas actualizadas (programas e modelos) para a avaliaci\u00f3n da explotaci\u00f3n, os usos, a defensa, a xesti\u00f3n e a planificaci\u00f3n conxunta das augas subterr\u00e1neas e superficiais. Co\u00f1ecemento dos plans hidrol\u00f3xicos nacionais"}, {"codigo": "A8", "competencia": "Capacidade de calcular e xestionar avenidas extremas"}, {"codigo": "A9", "competencia": "Co\u00f1ecementos de sistemas de informaci\u00f3n xeogr\u00e1fica (SIG) aplicados \u00e1 xesti\u00f3n de recursos h\u00eddricos. Co\u00f1ecemento das funcionalidades b\u00e1sicas de sistemas para a an\u00e1lise dos datos xeogr\u00e1ficos, mediante a utilizaci\u00f3n de ferramentas SIG de apoio na xesti\u00f3n e a an\u00e1lise de datos sobre recursos h\u00eddricos. Co\u00f1ecemento das caracter\u00edsticas dos datos geoespaciales e nos procesos para a s\u00faa adquisici\u00f3n, almacenamento, tratamento, an\u00e1lise, modelado e presentaci\u00f3n"}, {"codigo": "A10", "competencia": "Comprensi\u00f3n dos fundamentos da din\u00e1mica de flu\u00eddos computacional (CFD). Capacidade de elaborar c\u00f3digos que resolvan o fluxo incompresible tanto en superficie libre como en medio poroso"}, {"codigo": "A11", "competencia": "Co\u00f1ecemento de modelos num\u00e9ricos aplicados a enxe\u00f1ar\u00eda hidr\u00e1ulica. Capacidade utilizar e analizar os resultados dun modelo hidr\u00e1ulico. Capacidade de dese\u00f1ar, desenvolver e analizar os esquemas num\u00e9ricos utilizados nun modelo hidr\u00e1ulico."}, {"codigo": "A12", "competencia": "Capacidade para utilizar modelos num\u00e9ricos comerciais de fluxo en l\u00e1mina libre, fluxo en presi\u00f3n, drenaxes, c\u00e1lculo hidrol\u00f3xico de avenidas, transporte de sedimentos en r\u00edos e zonas costeiras, transporte de contaminantes e propagaci\u00f3n de ondada"}, {"codigo": "A13", "competencia": "Co\u00f1ecemento das t\u00e9cnicas experimentais aplicadas \u00e1 enxe\u00f1ar\u00eda da auga. Capacidade para dese\u00f1ar un experimento. Capacidade para desenvolver modelos reducidos en laboratorio. Capacidade para utilizar distintos tipos de instrumentaci\u00f3n experimental inclu\u00edndo caudal\u00edmetros, sondas de calado, veloc\u00edmetros tridimensionais, limn\u00f3metros, molinetes."}, {"codigo": "A14", "competencia": "Co\u00f1ecemento e comprensi\u00f3n do dese\u00f1o e construci\u00f3n de modelos a escala de estruturas hidr\u00e1ulicas. Comprensi\u00f3n das diferentes t\u00e9cnicas existentes de medici\u00f3ns de condici\u00f3ns f\u00edsicas (presi\u00f3n, temperatura, velocidade, etc.) dentro do campo da hidr\u00e1ulica. Co\u00f1ecemento de sistemas inform\u00e1ticos e electr\u00f3nicos de control e adquisici\u00f3n de datos en hidr\u00e1ulica (monitorizaci\u00f3n e control dunha conca fluvial, circu\u00edto hidr\u00e1ulico, etc.)."}, {"codigo": "A15", "competencia": "Visi\u00f3n xeral e equilibrada dos aspectos b\u00e1sicos e aplicados da Hidrolox\u00eda Subterr\u00e1nea dende as necesidades propias da enxe\u00f1ar\u00eda civil. Capacidade de proxectar e interpretar os distintos ensaios hidr\u00e1ulicos de caracterizaci\u00f3n hidrodin\u00e1mica do medio, interpretar mapas hidroxeol\u00f3xicos e co\u00f1ecer aspectos construtivos das captaci\u00f3ns."}, {"codigo": "A16", "competencia": "Comprensi\u00f3n das bases da qu\u00edmica da auga, que condiciona totalmente o seu comportamento no medio natural e os seus usos. Co\u00f1ecemento e comprensi\u00f3n das diferentes normativas de calidade de augas tanto a nivel auton\u00f3mico, nacional e europeo."}, {"codigo": "A17", "competencia": "Visi\u00f3n global do que \u00e9 un sistema de abastecemento a trav\u00e9s dos distintos elementos que o compo\u00f1en, \u00e1 vez que os co\u00f1ecementos necesarios para o seu dimensionamento b\u00e1sico e dos aspectos tecnol\u00f3xicos relacionados coa s\u00faa xesti\u00f3n e implantaci\u00f3n construtiva"}, {"codigo": "A18", "competencia": "Capacidade de realizar un aproveitamento integral e eficiente do recurso h\u00eddrico. Co\u00f1ecemento do funcionamento dos organismos de conca e an\u00e1lise xeral dos proxectos de enxe\u00f1ar\u00eda da auga no \u00e1mbito da cooperaci\u00f3n ao desenvolvemento e a axuda humanitaria"}, {"codigo": "A19", "competencia": "Co\u00f1ecemento de tratamentos avanzados da auga con diferentes fins: depuraci\u00f3n, reutilizaci\u00f3n, potabilizaci\u00f3n, eliminaci\u00f3n de nutrientes e tratamentos de rexeneraci\u00f3n"}, {"codigo": "A20", "competencia": "Destreza no manexo de equipos de medici\u00f3n de campo e laboratorio. Co\u00f1ecemento das metodolox\u00edas para o control de procesos e a determinaci\u00f3n de par\u00e1metros de dese\u00f1o de procesos de tratamento de augas"}, {"codigo": "A21", "competencia": "Co\u00f1ecemento dos modelos de calidade de augas. Capacidade de analizar e propo\u00f1er soluci\u00f3ns a problemas de xesti\u00f3n da calidade da auga."}, {"codigo": "A22", "competencia": "Capacidade para planificar, proxectar, dimensionar, dirixir a construci\u00f3n e a explotaci\u00f3n de conduci\u00f3ns hidr\u00e1ulicas, presas, aproveitamentos hidroel\u00e9ctricos, sistemas de regulaci\u00f3n de r\u00edos, regad\u00edos, obras fluviais e outras obras hidr\u00e1ulicas e hidrol\u00f3xicas"}, {"codigo": "A23", "competencia": "Co\u00f1ecementos fundamentais sobre o consumo de enerx\u00eda e das s\u00faas implicaci\u00f3ns ambientais dentro dun desenvolvemento sostible"}, {"codigo": "A24", "competencia": "Capacidade para dese\u00f1ar e xestionar o abastecemento e saneamento dunha poboaci\u00f3n, inclu\u00edndo dese\u00f1o e proxecto de soluci\u00f3ns de saneamento, drenaxe e xesti\u00f3n avanzada de augas residuais na cidade. Co\u00f1ecemento sobre procesos avanzados de depuraci\u00f3n para a eliminaci\u00f3n de nutrientes e de estratexias de xesti\u00f3n de augas tempo de chuvia."}, {"codigo": "A25", "competencia": "Co\u00f1ecemento e comprensi\u00f3n do funcionamento dos ecosistemas e os factores ambientais co fin de inventariar o medio, aplicando metodolox\u00edas de valoraci\u00f3n de impactos para o seu emprego en estudos e avaliaci\u00f3ns de Impacto Ambiental."}, {"codigo": "B1", "competencia": "Resolver problemas de forma eficaz"}, {"codigo": "B2", "competencia": "Aplicar un pensamento cr\u00edtico, l\u00f3xico e creativo."}, {"codigo": "B3", "competencia": "Traballar de forma aut\u00f3noma con iniciativa"}, {"codigo": "B4", "competencia": "Comunicarse eficazmente nun ambiente de traballo"}, {"codigo": "B5", "competencia": "Reciclaxe continua de co\u00f1ecementos nunha perspectiva xeralista no \u00e1mbito global de actuaci\u00f3n da Enxe\u00f1ar\u00eda da Auga"}, {"codigo": "B6", "competencia": "Compresi\u00f3n da necesidade de analiza-la historia para entender o presente"}, {"codigo": "B7", "competencia": "Facilidade para a  integraci\u00f3n nos equipos multidisciplinares"}, {"codigo": "B8", "competencia": "Capacidade para organizar e planificar"}, {"codigo": "B9", "competencia": "Capacidade de an\u00e1lise, s\u00edntese e estruturaci\u00f3n da informaci\u00f3n e as ideas."}, {"codigo": "C1", "competencia": "Entender a importancia da cultura emprendedora e co\u00f1ecer os medios ao alcance das persoas emprendedoras"}, {"codigo": "C2", "competencia": "Valorar criticamente o co\u00f1ecemento, a tecnolox\u00eda e a informaci\u00f3n dispo\u00f1ible para resolver os problemas cos que deben enfrontarse."}, {"codigo": "C3", "competencia": "Asumir como profesional e cidad\u00e1n a importancia da aprendizaxe ao longo da vida."}, {"codigo": "C4", "competencia": "Valorar a importancia que ten a investigaci\u00f3n, a innovaci\u00f3n e o desenvolvemento tecnol\u00f3xico no avance socioecon\u00f3mico e cultural da sociedade."}, {"codigo": "C5", "competencia": "Posu\u00edr e comprender co\u00f1ecementos que acheguen unha base ou oportunidade de ser orixinais no desenvolvemento e/ou aplicaci\u00f3n de ideas, a mi\u00fado nun contexto de investigaci\u00f3n"}, {"codigo": "C6", "competencia": "Que os estudantes saiban aplicar os co\u00f1ecementos adquiridos e a s\u00faa capacidade de resoluci\u00f3n de problemas en \u00e1mbitos novos ou pouco co\u00f1ecidos dentro de contextos m\u00e1is amplos (ou multidisciplinares)relacionados coa s\u00faa \u00e1rea de estudo"}, {"codigo": "C7", "competencia": "Que os estudantes sexan capaces de integrar co\u00f1ecementos e enfrontarse \u00e1 complexidade de formular xu\u00edzos a partir dunha informaci\u00f3n que, sendo incompleta ou limitada, incl\u00faa reflexi\u00f3ns sobre as responsabilidades sociais e \u00e9ticas vinculadas \u00e1 aplicaci\u00f3n dos seus co\u00f1ecementos e xu\u00edzos"}, {"codigo": "C8", "competencia": "Que os estudantes saiban comunicar as s\u00faas conclusi\u00f3ns e os co\u00f1ecementos e raz\u00f3ns \u00faltimas que as sustentan a p\u00fablicos especializados e non especializados dun modo claro e sen ambig\u00fcidades"}, {"codigo": "C9", "competencia": "Que os estudantes pos\u00faan as habilidades de aprendizaxe que lles permitan continuar estudando dun modo que haber\u00e1 de ser en boa medida autodirixido ou aut\u00f3nomo"}], "contenidos": [{"subtemas": [{"subtema": "No ha lugar"}], "temas": [{"tema": "Os estudantes deber\u00e1n redactar unha memoria fin de m\u00e1ster como requisito obrigatorio para obter a titulaci\u00f3n de M\u00e1ster en Enxe\u00f1ar\u00eda da Auga. Para iso o coordinador da universidade de acollida lles designar\u00e1 un titor experto nos temas que os alumnos elixan como obxecto das s\u00faas memorias."}, {"tema": "A memoria poder\u00e1 desenvolverse nas universidades da Coru\u00f1a ou Magdeburgo, ou outras universidades con as que estas te\u00f1an acordos de colaboraci\u00f3n. A asignaci\u00f3n de destinos considerar\u00e1 as prioridades dos alumnos e en caso de conflito seguir\u00e1 criterios estritamente acad\u00e9micos."}, {"tema": "\u00c1 finalizaci\u00f3n dos traballos o titor recibir\u00e1 unha memoria, que ser\u00e1 avaliada por un tribunal a constitu\u00edr na universidade de acollida, de polo menos tres integrantes, entre os que estar\u00e1n o coordinador do m\u00e1ster na universidade de acollida, o titor e outra persoa designada polo titor."}, {"tema": "En caso de conflito, os coordinadores das universidades da Coru\u00f1a e Magdeburgo dirimir\u00e1n calquera problema intentando chegar a unha soluci\u00f3n de consenso entre as partes."}, {"tema": "O obxecto da memoria ser\u00e1 un traballo de investigaci\u00f3n cient\u00edfica en calquera dos campos relacionados coa Enxe\u00f1ar\u00eda da Auga."}, {"tema": "Facilitarase un formato normalizado para que os alumnos se axusten a el, debendo entregar unha copia a cada un dos membros do tribunal con polo menos unha semana de antelaci\u00f3n antes da s\u00faa lectura. O idioma en redactarase e defenderase a memoria ser\u00e1 ingl\u00e9s."}]}], "coordinadores": [{"email": "ana.maria.vazquez@udc.es", "nombre": "V\u00e1zquez Gonz\u00e1lez, Ana Mar\u00eda"}], "creditos": 15.0, "cuatrimestre": "1\u00ba cuadrimestre", "curso": "Primeiro", "departamento": "Biolox\u00edaComputaci\u00f3nEnxe\u00f1ar\u00eda CivilEnxe\u00f1ar\u00eda Naval e IndustrialMatem\u00e1ticas", "descripcion": "Trabajo/proyecto donde se desarrollan los conceptos adquiridos en el master", "nombre_asignatura": "Traballo fin de mestrado", "nombre_centro": "Escola T\u00e9cnica Superior de Enxe\u00f1eiros de Cami\u00f1os, Canais e Portos", "nombre_titulacion": "Mestrado Universitario en Enxe\u00f1ar\u00eda da Auga (plan 2012)", "profesores": [{"email": "acacia.naves@udc.es", "nombre": "Naves Garc\u00eda-Rendueles, Acacia"}, {"email": "pablo.rodriguez-vellando@udc.es", "nombre": "Rodr\u00edguez-Vellando Fern\u00e1ndez-Carvajal, Pablo"}, {"email": "ana.maria.vazquez@udc.es", "nombre": "V\u00e1zquez Gonz\u00e1lez, Ana Mar\u00eda"}], "tipo": "Obrigatoria", "url": "https://guiadocente.udc.es/guia_docent/index.php?centre=632&ensenyament=632844&assignatura=632844216&any_academic=2018_19"}
{"index": {"_id": "632844207"}}
{"codigo": "632844207", "competencias": [{"codigo": "A15", "competencia": "Visi\u00f3n xeral e equilibrada dos aspectos b\u00e1sicos e aplicados da Hidrolox\u00eda Subterr\u00e1nea dende as necesidades propias da enxe\u00f1ar\u00eda civil. Capacidade de proxectar e interpretar os distintos ensaios hidr\u00e1ulicos de caracterizaci\u00f3n hidrodin\u00e1mica do medio, interpretar mapas hidroxeol\u00f3xicos e co\u00f1ecer aspectos construtivos das captaci\u00f3ns."}, {"codigo": "B1", "competencia": "Resolver problemas de forma eficaz"}, {"codigo": "B2", "competencia": "Aplicar un pensamento cr\u00edtico, l\u00f3xico e creativo."}, {"codigo": "B3", "competencia": "Traballar de forma aut\u00f3noma con iniciativa"}, {"codigo": "B4", "competencia": "Comunicarse eficazmente nun ambiente de traballo"}, {"codigo": "B5", "competencia": "Reciclaxe continua de co\u00f1ecementos nunha perspectiva xeralista no \u00e1mbito global de actuaci\u00f3n da Enxe\u00f1ar\u00eda da Auga"}, {"codigo": "B6", "competencia": "Compresi\u00f3n da necesidade de analiza-la historia para entender o presente"}, {"codigo": "B7", "competencia": "Facilidade para a  integraci\u00f3n nos equipos multidisciplinares"}, {"codigo": "B8", "competencia": "Capacidade para organizar e planificar"}, {"codigo": "B9", "competencia": "Capacidade de an\u00e1lise, s\u00edntese e estruturaci\u00f3n da informaci\u00f3n e as ideas."}, {"codigo": "C1", "competencia": "Entender a importancia da cultura emprendedora e co\u00f1ecer os medios ao alcance das persoas emprendedoras"}, {"codigo": "C2", "competencia": "Valorar criticamente o co\u00f1ecemento, a tecnolox\u00eda e a informaci\u00f3n dispo\u00f1ible para resolver os problemas cos que deben enfrontarse."}, {"codigo": "C3", "competencia": "Asumir como profesional e cidad\u00e1n a importancia da aprendizaxe ao longo da vida."}, {"codigo": "C4", "competencia": "Valorar a importancia que ten a investigaci\u00f3n, a innovaci\u00f3n e o desenvolvemento tecnol\u00f3xico no avance socioecon\u00f3mico e cultural da sociedade."}, {"codigo": "C5", "competencia": "Posu\u00edr e comprender co\u00f1ecementos que acheguen unha base ou oportunidade de ser orixinais no desenvolvemento e/ou aplicaci\u00f3n de ideas, a mi\u00fado nun contexto de investigaci\u00f3n"}, {"codigo": "C6", "competencia": "Que os estudantes saiban aplicar os co\u00f1ecementos adquiridos e a s\u00faa capacidade de resoluci\u00f3n de problemas en \u00e1mbitos novos ou pouco co\u00f1ecidos dentro de contextos m\u00e1is amplos (ou multidisciplinares)relacionados coa s\u00faa \u00e1rea de estudo"}, {"codigo": "C7", "competencia": "Que os estudantes sexan capaces de integrar co\u00f1ecementos e enfrontarse \u00e1 complexidade de formular xu\u00edzos a partir dunha informaci\u00f3n que, sendo incompleta ou limitada, incl\u00faa reflexi\u00f3ns sobre as responsabilidades sociais e \u00e9ticas vinculadas \u00e1 aplicaci\u00f3n dos seus co\u00f1ecementos e xu\u00edzos"}, {"codigo": "C8", "competencia": "Que os estudantes saiban comunicar as s\u00faas conclusi\u00f3ns e os co\u00f1ecementos e raz\u00f3ns \u00faltimas que as sustentan a p\u00fablicos especializados e non especializados dun modo claro e sen ambig\u00fcidades"}, {"codigo": "C9", "competencia": "Que os estudantes pos\u00faan as habilidades de aprendizaxe que lles permitan continuar estudando dun modo que haber\u00e1 de ser en boa medida autodirixido ou aut\u00f3nomo"}], "contenidos": [{"subtemas": [{"subtema": "Compo\u00f1entes"}, {"subtema": "Evapotranspiraci\u00f3n e evapotranspiraci\u00f3n potencial"}, {"subtema": "Infiltraci\u00f3n e recarga"}, {"subtema": "Fluxo subterr\u00e1neo"}], "temas": [{"tema": "Introduci\u00f3n ao ciclo hidrol\u00f3xico"}]}, {"subtemas": [{"subtema": "Medio continental: erosi\u00f3n, transporte e sedimentaci\u00f3n"}, {"subtema": "Tipos de dep\u00f3sitos: fluvial, e\u00f3lico, lacustre e glacial"}, {"subtema": "Elevaci\u00f3n, diax\u00e9nese e erosi\u00f3n"}, {"subtema": "Tect\u00f3nica e formaci\u00f3n de fracturas"}], "temas": [{"tema": "Materiais xeol\u00f3xicos"}]}, {"subtemas": [{"subtema": "Conceptos b\u00e1sicos"}, {"subtema": "Lei experimental de Darcy e estimaci\u00f3ns en campo"}, {"subtema": "Propiedades: porosidade e condutividade hidr\u00e1ulica"}, {"subtema": "Isopiezas"}, {"subtema": "Fluxo en rochas fracturadas"}], "temas": [{"tema": "Fluxo subterr\u00e1neo"}]}, {"subtemas": [{"subtema": "Conservaci\u00f3n da masa"}, {"subtema": "Propiedades do almacenamento en medios porosos"}, {"subtema": "Condici\u00f3ns de contorno e redes de fluxo"}], "temas": [{"tema": "Ecuaci\u00f3ns do fluxo"}]}, {"subtemas": [{"subtema": "Ecuaci\u00f3n de Richards"}, {"subtema": "Fluxo non saturado en rochas fracturadas"}], "temas": [{"tema": "Fluxo na zona non saturada"}]}, {"subtemas": [{"subtema": "Advecci\u00f3n"}, {"subtema": "Conceptos b\u00e1sicos de dispersi\u00f3n: difusi\u00f3n e dispersi\u00f3n mec\u00e1nica"}], "temas": [{"tema": "Transporte de solutos"}]}, {"subtemas": [{"subtema": "Sistemas acuosos"}, {"subtema": "Descrici\u00f3n de equilibrio e cin\u00e9tica"}, {"subtema": "Modelos estequiom\u00e9tricos"}, {"subtema": "Cin\u00e9tica qu\u00edmica"}, {"subtema": "Composici\u00f3n da auga subterr\u00e1nea"}], "temas": [{"tema": "Principios de xeoqu\u00edmica"}]}, {"subtemas": [{"subtema": "Reacci\u00f3ns homox\u00e9neas: \u00e1cido-base, complexaci\u00f3n e xoidaci\u00f3n-reduci\u00f3n"}, {"subtema": "Reacci\u00f3ns heterox\u00e9neas: disoluci\u00f3n-precipitaci\u00f3n, sorci\u00f3n"}], "temas": [{"tema": "Reacci\u00f3ns qu\u00edmicas"}]}, {"subtemas": [{"subtema": "Intrusi\u00f3n salina"}, {"subtema": "M\u00e9todos"}], "temas": [{"tema": "Relaci\u00f3n auga doce/salgada"}]}, {"subtemas": [{"subtema": "Ensaio hidr\u00e1ulico convencional"}, {"subtema": "Ensaio de bombeo simple"}, {"subtema": "Ensaios hidr\u00e1ulicos en rochas fracturadas e medios de baixa permeabilidade"}, {"subtema": "Outros ensaios"}], "temas": [{"tema": "Ensaios hidr\u00e1ulicos"}]}, {"subtemas": [{"subtema": "Subsidencia"}, {"subtema": "Acu\u00edferos costeiros"}, {"subtema": "Drenaxe en noiros"}, {"subtema": "Drenaxe en estradas"}, {"subtema": "Presas"}], "temas": [{"tema": "A auga subterr\u00e1nea como recurso"}]}], "coordinadores": [{"email": "ricardo.juncosa@udc.es", "nombre": "Juncosa Rivera, Ricardo"}], "creditos": 6.0, "cuatrimestre": "1\u00ba cuadrimestre", "curso": "Primeiro", "departamento": "Enxe\u00f1ar\u00eda Civil", "descripcion": "Fluxo subterr\u00e1neo en medios porosos e fracturados (Hidroxeolox\u00eda f\u00edsica) en condici\u00f3ns saturadas e non saturadas. Interacci\u00f3n auga superficial e subterr\u00e1nea. Principios de hidroqu\u00edmica e interacci\u00f3n auga-rocha (hidroxeolox\u00eda qu\u00edmica, transporte en medios porosos), ensaios hidrodin\u00e1micos en acu\u00edferos (ensaios de pulso, ensaios de bombeo,\u2026), aspectos construtivos de pozos, desenvolvemento e explotaci\u00f3n de acu\u00edferos", "nombre_asignatura": "Enxe\u00f1ar\u00eda da auga subterr\u00e1nea", "nombre_centro": "Escola T\u00e9cnica Superior de Enxe\u00f1eiros de Cami\u00f1os, Canais e Portos", "nombre_titulacion": "Mestrado Universitario en Enxe\u00f1ar\u00eda da Auga (plan 2012)", "profesores": [{"email": "ricardo.juncosa@udc.es", "nombre": "Juncosa Rivera, Ricardo"}, {"email": "francisco.padilla@udc.es", "nombre": "Padilla Benitez, Francisco"}, {"email": "gemma.soriano@udc.es", "nombre": "Soriano Hoyuelos, Gemma"}], "tipo": "Optativa", "url": "https://guiadocente.udc.es/guia_docent/index.php?centre=632&ensenyament=632844&assignatura=632844207&any_academic=2018_19"}
